-- Install configuration: ""
-- Up-to-date: /home/alberto/ros2_ws/install/rvc_bringup/share/rvc_bringup/launch
-- Up-to-date: /home/alberto/ros2_ws/install/rvc_bringup/share/rvc_bringup/launch/joint_bringup.launch.py
-- Up-to-date: /home/alberto/ros2_ws/install/rvc_bringup/share/rvc_bringup/launch/cartesian_bringup.launch.py
-- Up-to-date: /home/alberto/ros2_ws/install/rvc_bringup/share/ament_index/resource_index/package_run_dependencies/rvc_bringup
-- Up-to-date: /home/alberto/ros2_ws/install/rvc_bringup/share/ament_index/resource_index/parent_prefix_path/rvc_bringup
-- Up-to-date: /home/alberto/ros2_ws/install/rvc_bringup/share/rvc_bringup/environment/ament_prefix_path.sh
-- Up-to-date: /home/alberto/ros2_ws/install/rvc_bringup/share/rvc_bringup/environment/ament_prefix_path.dsv
-- Up-to-date: /home/alberto/ros2_ws/install/rvc_bringup/share/rvc_bringup/environment/path.sh
-- Up-to-date: /home/alberto/ros2_ws/install/rvc_bringup/share/rvc_bringup/environment/path.dsv
-- Up-to-date: /home/alberto/ros2_ws/install/rvc_bringup/share/rvc_bringup/local_setup.bash
-- Up-to-date: /home/alberto/ros2_ws/install/rvc_bringup/share/rvc_bringup/local_setup.sh
-- Up-to-date: /home/alberto/ros2_ws/install/rvc_bringup/share/rvc_bringup/local_setup.zsh
-- Up-to-date: /home/alberto/ros2_ws/install/rvc_bringup/share/rvc_bringup/local_setup.dsv
-- Installing: /home/alberto/ros2_ws/install/rvc_bringup/share/rvc_bringup/package.dsv
-- Up-to-date: /home/alberto/ros2_ws/install/rvc_bringup/share/ament_index/resource_index/packages/rvc_bringup
-- Up-to-date: /home/alberto/ros2_ws/install/rvc_bringup/share/rvc_bringup/cmake/rvc_bringupConfig.cmake
-- Up-to-date: /home/alberto/ros2_ws/install/rvc_bringup/share/rvc_bringup/cmake/rvc_bringupConfig-version.cmake
-- Up-to-date: /home/alberto/ros2_ws/install/rvc_bringup/share/rvc_bringup/package.xml
