[0.115s] Invoking command in '/home/alberto/ros2_ws/build/xacro': CMAKE_PREFIX_PATH=${CMAKE_PREFIX_PATH}:/home/alberto/ros2_ws/install/trajectory:/home/alberto/ros2_ws/install/sphere_trajectory:/opt/ros/foxy /usr/bin/cmake --build /home/alberto/ros2_ws/build/xacro -- -j4 -l4
[0.254s] Built target ament_cmake_python_copy_xacro
[0.752s] running egg_info
[0.753s] writing xacro.egg-info/PKG-INFO
[0.753s] writing dependency_links to xacro.egg-info/dependency_links.txt
[0.753s] writing top-level names to xacro.egg-info/top_level.txt
[0.807s] reading manifest file 'xacro.egg-info/SOURCES.txt'
[0.808s] writing manifest file 'xacro.egg-info/SOURCES.txt'
[0.851s] Built target ament_cmake_python_build_xacro_egg
[0.866s] Invoked command in '/home/alberto/ros2_ws/build/xacro' returned '0': CMAKE_PREFIX_PATH=${CMAKE_PREFIX_PATH}:/home/alberto/ros2_ws/install/trajectory:/home/alberto/ros2_ws/install/sphere_trajectory:/opt/ros/foxy /usr/bin/cmake --build /home/alberto/ros2_ws/build/xacro -- -j4 -l4
[0.897s] Invoking command in '/home/alberto/ros2_ws/build/xacro': CMAKE_PREFIX_PATH=${CMAKE_PREFIX_PATH}:/home/alberto/ros2_ws/install/trajectory:/home/alberto/ros2_ws/install/sphere_trajectory:/opt/ros/foxy /usr/bin/cmake --install /home/alberto/ros2_ws/build/xacro
[0.910s] -- Install configuration: ""
[0.911s] -- Up-to-date: /home/alberto/ros2_ws/install/xacro/share/xacro/environment/completion.bash
[0.911s] -- Up-to-date: /home/alberto/ros2_ws/install/xacro/share/xacro/environment/pythonpath.sh
[0.911s] -- Up-to-date: /home/alberto/ros2_ws/install/xacro/share/xacro/environment/pythonpath.dsv
[0.912s] -- Up-to-date: /home/alberto/ros2_ws/install/xacro/lib/python3.8/site-packages//xacro.egg-info
[0.912s] -- Installing: /home/alberto/ros2_ws/install/xacro/lib/python3.8/site-packages//xacro.egg-info/PKG-INFO
[0.912s] -- Installing: /home/alberto/ros2_ws/install/xacro/lib/python3.8/site-packages//xacro.egg-info/SOURCES.txt
[0.912s] -- Installing: /home/alberto/ros2_ws/install/xacro/lib/python3.8/site-packages//xacro.egg-info/top_level.txt
[0.912s] -- Installing: /home/alberto/ros2_ws/install/xacro/lib/python3.8/site-packages//xacro.egg-info/dependency_links.txt
[0.913s] -- Up-to-date: /home/alberto/ros2_ws/install/xacro/lib/python3.8/site-packages/xacro
[0.913s] -- Up-to-date: /home/alberto/ros2_ws/install/xacro/lib/python3.8/site-packages/xacro/cli.py
[0.913s] -- Up-to-date: /home/alberto/ros2_ws/install/xacro/lib/python3.8/site-packages/xacro/color.py
[0.913s] -- Up-to-date: /home/alberto/ros2_ws/install/xacro/lib/python3.8/site-packages/xacro/__init__.py
[0.914s] -- Up-to-date: /home/alberto/ros2_ws/install/xacro/lib/python3.8/site-packages/xacro/substitution_args.py
[0.914s] -- Up-to-date: /home/alberto/ros2_ws/install/xacro/lib/python3.8/site-packages/xacro/xmlutils.py
[0.953s] Listing '/home/alberto/ros2_ws/install/xacro/lib/python3.8/site-packages/xacro'...
[0.959s] -- Up-to-date: /home/alberto/ros2_ws/install/xacro/bin/xacro
[0.960s] -- Up-to-date: /home/alberto/ros2_ws/install/xacro/lib/xacro/xacro
[0.960s] -- Up-to-date: /home/alberto/ros2_ws/install/xacro/share/ament_index/resource_index/package_run_dependencies/xacro
[0.960s] -- Up-to-date: /home/alberto/ros2_ws/install/xacro/share/ament_index/resource_index/parent_prefix_path/xacro
[0.960s] -- Up-to-date: /home/alberto/ros2_ws/install/xacro/share/xacro/environment/ament_prefix_path.sh
[0.961s] -- Up-to-date: /home/alberto/ros2_ws/install/xacro/share/xacro/environment/ament_prefix_path.dsv
[0.961s] -- Up-to-date: /home/alberto/ros2_ws/install/xacro/share/xacro/environment/path.sh
[0.961s] -- Up-to-date: /home/alberto/ros2_ws/install/xacro/share/xacro/environment/path.dsv
[0.961s] -- Up-to-date: /home/alberto/ros2_ws/install/xacro/share/xacro/local_setup.bash
[0.962s] -- Up-to-date: /home/alberto/ros2_ws/install/xacro/share/xacro/local_setup.sh
[0.962s] -- Up-to-date: /home/alberto/ros2_ws/install/xacro/share/xacro/local_setup.zsh
[0.962s] -- Up-to-date: /home/alberto/ros2_ws/install/xacro/share/xacro/local_setup.dsv
[0.962s] -- Installing: /home/alberto/ros2_ws/install/xacro/share/xacro/package.dsv
[0.962s] -- Up-to-date: /home/alberto/ros2_ws/install/xacro/share/ament_index/resource_index/packages/xacro
[0.963s] -- Up-to-date: /home/alberto/ros2_ws/install/xacro/share/xacro/cmake/xacro-extras.cmake
[0.963s] -- Up-to-date: /home/alberto/ros2_ws/install/xacro/share/xacro/cmake/xacroConfig.cmake
[0.963s] -- Up-to-date: /home/alberto/ros2_ws/install/xacro/share/xacro/cmake/xacroConfig-version.cmake
[0.963s] -- Up-to-date: /home/alberto/ros2_ws/install/xacro/share/xacro/package.xml
[0.972s] Invoked command in '/home/alberto/ros2_ws/build/xacro' returned '0': CMAKE_PREFIX_PATH=${CMAKE_PREFIX_PATH}:/home/alberto/ros2_ws/install/trajectory:/home/alberto/ros2_ws/install/sphere_trajectory:/opt/ros/foxy /usr/bin/cmake --install /home/alberto/ros2_ws/build/xacro
