Invoking command in '/home/alberto/ros2_ws/build/xacro': CMAKE_PREFIX_PATH=${CMAKE_PREFIX_PATH}:/home/alberto/ros2_ws/install/trajectory:/home/alberto/ros2_ws/install/sphere_trajectory:/opt/ros/galactic /usr/bin/cmake --build /home/alberto/ros2_ws/build/xacro -- -j4 -l4
Invoked command in '/home/alberto/ros2_ws/build/xacro' returned '0': CMAKE_PREFIX_PATH=${CMAKE_PREFIX_PATH}:/home/alberto/ros2_ws/install/trajectory:/home/alberto/ros2_ws/install/sphere_trajectory:/opt/ros/galactic /usr/bin/cmake --build /home/alberto/ros2_ws/build/xacro -- -j4 -l4
Invoking command in '/home/alberto/ros2_ws/build/xacro': CMAKE_PREFIX_PATH=${CMAKE_PREFIX_PATH}:/home/alberto/ros2_ws/install/trajectory:/home/alberto/ros2_ws/install/sphere_trajectory:/opt/ros/galactic /usr/bin/cmake --install /home/alberto/ros2_ws/build/xacro
Invoked command in '/home/alberto/ros2_ws/build/xacro' returned '0': CMAKE_PREFIX_PATH=${CMAKE_PREFIX_PATH}:/home/alberto/ros2_ws/install/trajectory:/home/alberto/ros2_ws/install/sphere_trajectory:/opt/ros/galactic /usr/bin/cmake --install /home/alberto/ros2_ws/build/xacro
