[0.063s] Invoking command in '/home/alberto/ros2_ws/build/ur5_description': CMAKE_PREFIX_PATH=${CMAKE_PREFIX_PATH}:/opt/ros/galactic /usr/bin/cmake /home/alberto/ros2_ws/src/ur5_description -DCMAKE_INSTALL_PREFIX=/home/alberto/ros2_ws/install/ur5_description
[0.314s] -- The C compiler identification is GNU 9.4.0
[0.512s] -- The CXX compiler identification is GNU 9.4.0
[0.526s] -- Check for working C compiler: /usr/bin/cc
[0.719s] -- Check for working C compiler: /usr/bin/cc -- works
[0.732s] -- Detecting C compiler ABI info
[0.915s] -- Detecting C compiler ABI info - done
[0.948s] -- Detecting C compile features
[0.949s] -- Detecting C compile features - done
[0.956s] -- Check for working CXX compiler: /usr/bin/c++
[1.122s] -- Check for working CXX compiler: /usr/bin/c++ -- works
[1.125s] -- Detecting CXX compiler ABI info
[1.339s] -- Detecting CXX compiler ABI info - done
[1.374s] -- Detecting CXX compile features
[1.376s] -- Detecting CXX compile features - done
[1.381s] -- Found ament_cmake: 1.1.5 (/opt/ros/galactic/share/ament_cmake/cmake)
[1.438s] -- Found PythonInterp: /usr/bin/python3 (found suitable version "3.8.10", minimum required is "3") 
[1.439s] -- Using PYTHON_EXECUTABLE: /usr/bin/python3
[1.748s] -- Found ament_lint_auto: 0.10.7 (/opt/ros/galactic/share/ament_lint_auto/cmake)
[1.958s] -- Added test 'copyright' to check source files copyright and LICENSE
[1.967s] -- Added test 'flake8' to check Python code syntax and style conventions
[1.969s] -- Added test 'lint_cmake' to check CMake code style
[1.970s] -- Added test 'pep257' to check Python code against some of the style conventions in PEP 257
[1.977s] -- Added test 'xmllint' to check XML markup files
[1.982s] -- Configuring done
[1.986s] -- Generating done
[1.988s] -- Build files have been written to: /home/alberto/ros2_ws/build/ur5_description
[2.001s] Invoked command in '/home/alberto/ros2_ws/build/ur5_description' returned '0': CMAKE_PREFIX_PATH=${CMAKE_PREFIX_PATH}:/opt/ros/galactic /usr/bin/cmake /home/alberto/ros2_ws/src/ur5_description -DCMAKE_INSTALL_PREFIX=/home/alberto/ros2_ws/install/ur5_description
[2.003s] Invoking command in '/home/alberto/ros2_ws/build/ur5_description': CMAKE_PREFIX_PATH=${CMAKE_PREFIX_PATH}:/opt/ros/galactic /usr/bin/cmake --build /home/alberto/ros2_ws/build/ur5_description -- -j4 -l4
[2.134s] Invoked command in '/home/alberto/ros2_ws/build/ur5_description' returned '0': CMAKE_PREFIX_PATH=${CMAKE_PREFIX_PATH}:/opt/ros/galactic /usr/bin/cmake --build /home/alberto/ros2_ws/build/ur5_description -- -j4 -l4
[2.192s] Invoking command in '/home/alberto/ros2_ws/build/ur5_description': CMAKE_PREFIX_PATH=${CMAKE_PREFIX_PATH}:/opt/ros/galactic /usr/bin/cmake --install /home/alberto/ros2_ws/build/ur5_description
[2.254s] -- Install configuration: ""
[2.254s] -- Installing: /home/alberto/ros2_ws/install/ur5_description/share/ur5_description/launch
[2.254s] -- Installing: /home/alberto/ros2_ws/install/ur5_description/share/ur5_description/launch/ur5_wsg50.launch.py
[2.257s] -- Installing: /home/alberto/ros2_ws/install/ur5_description/share/ur5_description/urdf
[2.259s] -- Installing: /home/alberto/ros2_ws/install/ur5_description/share/ur5_description/urdf/ur5
[2.259s] -- Installing: /home/alberto/ros2_ws/install/ur5_description/share/ur5_description/urdf/ur5/config
[2.259s] -- Installing: /home/alberto/ros2_ws/install/ur5_description/share/ur5_description/urdf/ur5/config/ur5_calibration.yaml
[2.260s] -- Installing: /home/alberto/ros2_ws/install/ur5_description/share/ur5_description/urdf/ur5/ur.transmission.xacro
[2.260s] -- Installing: /home/alberto/ros2_ws/install/ur5_description/share/ur5_description/urdf/ur5/ur5.urdf.xacro
[2.263s] -- Installing: /home/alberto/ros2_ws/install/ur5_description/share/ur5_description/urdf/ur5/ur.gazebo.xacro
[2.263s] -- Installing: /home/alberto/ros2_ws/install/ur5_description/share/ur5_description/urdf/sensors
[2.264s] -- Installing: /home/alberto/ros2_ws/install/ur5_description/share/ur5_description/urdf/sensors/intel_d435.urdf.xacro
[2.264s] -- Installing: /home/alberto/ros2_ws/install/ur5_description/share/ur5_description/urdf/wsg_50
[2.264s] -- Installing: /home/alberto/ros2_ws/install/ur5_description/share/ur5_description/urdf/wsg_50/wsg_50.urdf.xacro
[2.268s] -- Installing: /home/alberto/ros2_ws/install/ur5_description/share/ur5_description/urdf/wsg_50/wsg_50_support.urdf.xacro
[2.268s] -- Installing: /home/alberto/ros2_ws/install/ur5_description/share/ur5_description/urdf/wsg_50/realsense_wrist_support.urdf.xacro
[2.269s] -- Installing: /home/alberto/ros2_ws/install/ur5_description/share/ur5_description/urdf/robot
[2.269s] -- Installing: /home/alberto/ros2_ws/install/ur5_description/share/ur5_description/urdf/robot/ur5_wsg50.urdf
[2.271s] -- Installing: /home/alberto/ros2_ws/install/ur5_description/share/ur5_description/urdf/robot/ur5_wsg50.urdf.xacro
[2.279s] -- Installing: /home/alberto/ros2_ws/install/ur5_description/share/ur5_description/meshes
[2.279s] -- Installing: /home/alberto/ros2_ws/install/ur5_description/share/ur5_description/meshes/ur5
[2.281s] -- Installing: /home/alberto/ros2_ws/install/ur5_description/share/ur5_description/meshes/ur5/visual
[2.281s] -- Installing: /home/alberto/ros2_ws/install/ur5_description/share/ur5_description/meshes/ur5/visual/wrist1.dae
[2.288s] -- Installing: /home/alberto/ros2_ws/install/ur5_description/share/ur5_description/meshes/ur5/visual/wrist3.dae
[2.293s] -- Installing: /home/alberto/ros2_ws/install/ur5_description/share/ur5_description/meshes/ur5/visual/wrist2.dae
[2.304s] -- Installing: /home/alberto/ros2_ws/install/ur5_description/share/ur5_description/meshes/ur5/visual/forearm.dae
[2.329s] -- Installing: /home/alberto/ros2_ws/install/ur5_description/share/ur5_description/meshes/ur5/visual/shoulder.dae
[2.338s] -- Installing: /home/alberto/ros2_ws/install/ur5_description/share/ur5_description/meshes/ur5/visual/upperarm.dae
[2.389s] -- Installing: /home/alberto/ros2_ws/install/ur5_description/share/ur5_description/meshes/ur5/visual/base.dae
[2.393s] -- Installing: /home/alberto/ros2_ws/install/ur5_description/share/ur5_description/meshes/ur5/collision
[2.393s] -- Installing: /home/alberto/ros2_ws/install/ur5_description/share/ur5_description/meshes/ur5/collision/forearm.stl
[2.396s] -- Installing: /home/alberto/ros2_ws/install/ur5_description/share/ur5_description/meshes/ur5/collision/upperarm.stl
[2.400s] -- Installing: /home/alberto/ros2_ws/install/ur5_description/share/ur5_description/meshes/ur5/collision/wrist2.stl
[2.403s] -- Installing: /home/alberto/ros2_ws/install/ur5_description/share/ur5_description/meshes/ur5/collision/shoulder.stl
[2.405s] -- Installing: /home/alberto/ros2_ws/install/ur5_description/share/ur5_description/meshes/ur5/collision/base.stl
[2.406s] -- Installing: /home/alberto/ros2_ws/install/ur5_description/share/ur5_description/meshes/ur5/collision/wrist3.stl
[2.408s] -- Installing: /home/alberto/ros2_ws/install/ur5_description/share/ur5_description/meshes/ur5/collision/wrist1.stl
[2.411s] -- Installing: /home/alberto/ros2_ws/install/ur5_description/share/ur5_description/meshes/sensors
[2.411s] -- Installing: /home/alberto/ros2_ws/install/ur5_description/share/ur5_description/meshes/sensors/intel_realsense_depth_camera_d435.stl
[2.424s] -- Installing: /home/alberto/ros2_ws/install/ur5_description/share/ur5_description/meshes/sensors/intel_realsense_depth_camera_d435.dae
[2.425s] -- Installing: /home/alberto/ros2_ws/install/ur5_description/share/ur5_description/meshes/wsg_50
[2.425s] -- Installing: /home/alberto/ros2_ws/install/ur5_description/share/ur5_description/meshes/wsg_50/GUIDE_WSG50_110.stl
[2.426s] -- Installing: /home/alberto/ros2_ws/install/ur5_description/share/ur5_description/meshes/wsg_50/GUIDE_WSG50_110.dae
[2.427s] -- Installing: /home/alberto/ros2_ws/install/ur5_description/share/ur5_description/meshes/wsg_50/WSG-FMF.dae
[2.427s] -- Installing: /home/alberto/ros2_ws/install/ur5_description/share/ur5_description/meshes/wsg_50/WSG50_110.stl
[2.428s] -- Installing: /home/alberto/ros2_ws/install/ur5_description/share/ur5_description/meshes/wsg_50/WSG-FMF.stl
[2.430s] -- Installing: /home/alberto/ros2_ws/install/ur5_description/share/ur5_description/rviz
[2.430s] -- Installing: /home/alberto/ros2_ws/install/ur5_description/share/ur5_description/rviz/ur5_rviz.rviz
[2.431s] -- Installing: /home/alberto/ros2_ws/install/ur5_description/share/ament_index/resource_index/package_run_dependencies/ur5_description
[2.431s] -- Installing: /home/alberto/ros2_ws/install/ur5_description/share/ament_index/resource_index/parent_prefix_path/ur5_description
[2.431s] -- Installing: /home/alberto/ros2_ws/install/ur5_description/share/ur5_description/environment/ament_prefix_path.sh
[2.432s] -- Installing: /home/alberto/ros2_ws/install/ur5_description/share/ur5_description/environment/ament_prefix_path.dsv
[2.432s] -- Installing: /home/alberto/ros2_ws/install/ur5_description/share/ur5_description/environment/path.sh
[2.432s] -- Installing: /home/alberto/ros2_ws/install/ur5_description/share/ur5_description/environment/path.dsv
[2.433s] -- Installing: /home/alberto/ros2_ws/install/ur5_description/share/ur5_description/local_setup.bash
[2.433s] -- Installing: /home/alberto/ros2_ws/install/ur5_description/share/ur5_description/local_setup.sh
[2.433s] -- Installing: /home/alberto/ros2_ws/install/ur5_description/share/ur5_description/local_setup.zsh
[2.433s] -- Installing: /home/alberto/ros2_ws/install/ur5_description/share/ur5_description/local_setup.dsv
[2.433s] -- Installing: /home/alberto/ros2_ws/install/ur5_description/share/ur5_description/package.dsv
[2.434s] -- Installing: /home/alberto/ros2_ws/install/ur5_description/share/ament_index/resource_index/packages/ur5_description
[2.434s] -- Installing: /home/alberto/ros2_ws/install/ur5_description/share/ur5_description/cmake/ur5_descriptionConfig.cmake
[2.434s] -- Installing: /home/alberto/ros2_ws/install/ur5_description/share/ur5_description/cmake/ur5_descriptionConfig-version.cmake
[2.435s] -- Installing: /home/alberto/ros2_ws/install/ur5_description/share/ur5_description/package.xml
[2.457s] Invoked command in '/home/alberto/ros2_ws/build/ur5_description' returned '0': CMAKE_PREFIX_PATH=${CMAKE_PREFIX_PATH}:/opt/ros/galactic /usr/bin/cmake --install /home/alberto/ros2_ws/build/ur5_description
