[0.077s] Invoking command in '/home/alberto/ros2_ws/build/kinematic': CMAKE_PREFIX_PATH=${CMAKE_PREFIX_PATH}:/home/alberto/ros2_ws/install/trajectory:/opt/ros/galactic /usr/bin/cmake --build /home/alberto/ros2_ws/build/kinematic -- -j4 -l4
[0.515s] [ 50%] Built target forward_kinematic_node
[0.516s] [100%] Built target inverse_kinematic_node
[0.529s] Invoked command in '/home/alberto/ros2_ws/build/kinematic' returned '0': CMAKE_PREFIX_PATH=${CMAKE_PREFIX_PATH}:/home/alberto/ros2_ws/install/trajectory:/opt/ros/galactic /usr/bin/cmake --build /home/alberto/ros2_ws/build/kinematic -- -j4 -l4
[0.590s] Invoking command in '/home/alberto/ros2_ws/build/kinematic': CMAKE_PREFIX_PATH=${CMAKE_PREFIX_PATH}:/home/alberto/ros2_ws/install/trajectory:/opt/ros/galactic /usr/bin/cmake --install /home/alberto/ros2_ws/build/kinematic
[0.623s] -- Install configuration: ""
[0.623s] -- Up-to-date: /home/alberto/ros2_ws/install/kinematic/lib/kinematic/inverse_kinematic_node
[0.626s] -- Up-to-date: /home/alberto/ros2_ws/install/kinematic/lib/kinematic/forward_kinematic_node
[0.626s] -- Up-to-date: /home/alberto/ros2_ws/install/kinematic/include/
[0.626s] -- Up-to-date: /home/alberto/ros2_ws/install/kinematic/include//kinematic
[0.627s] -- Up-to-date: /home/alberto/ros2_ws/install/kinematic/include//kinematic/forward_kinematic.hpp
[0.627s] -- Up-to-date: /home/alberto/ros2_ws/install/kinematic/include//kinematic/inverse_kinematic.hpp
[0.627s] -- Up-to-date: /home/alberto/ros2_ws/install/kinematic/share/kinematic/launch
[0.628s] -- Up-to-date: /home/alberto/ros2_ws/install/kinematic/share/kinematic/launch/inverse_kinematic.launch.py
[0.628s] -- Up-to-date: /home/alberto/ros2_ws/install/kinematic/share/kinematic/launch/forward_kinematic.launch.py
[0.628s] -- Up-to-date: /home/alberto/ros2_ws/install/kinematic/share/ament_index/resource_index/package_run_dependencies/kinematic
[0.628s] -- Up-to-date: /home/alberto/ros2_ws/install/kinematic/share/ament_index/resource_index/parent_prefix_path/kinematic
[0.629s] -- Up-to-date: /home/alberto/ros2_ws/install/kinematic/share/kinematic/environment/ament_prefix_path.sh
[0.629s] -- Up-to-date: /home/alberto/ros2_ws/install/kinematic/share/kinematic/environment/ament_prefix_path.dsv
[0.629s] -- Up-to-date: /home/alberto/ros2_ws/install/kinematic/share/kinematic/environment/path.sh
[0.630s] -- Up-to-date: /home/alberto/ros2_ws/install/kinematic/share/kinematic/environment/path.dsv
[0.630s] -- Up-to-date: /home/alberto/ros2_ws/install/kinematic/share/kinematic/local_setup.bash
[0.631s] -- Up-to-date: /home/alberto/ros2_ws/install/kinematic/share/kinematic/local_setup.sh
[0.632s] -- Up-to-date: /home/alberto/ros2_ws/install/kinematic/share/kinematic/local_setup.zsh
[0.632s] -- Up-to-date: /home/alberto/ros2_ws/install/kinematic/share/kinematic/local_setup.dsv
[0.632s] -- Installing: /home/alberto/ros2_ws/install/kinematic/share/kinematic/package.dsv
[0.634s] -- Up-to-date: /home/alberto/ros2_ws/install/kinematic/share/ament_index/resource_index/packages/kinematic
[0.634s] -- Up-to-date: /home/alberto/ros2_ws/install/kinematic/share/kinematic/cmake/kinematicConfig.cmake
[0.641s] -- Up-to-date: /home/alberto/ros2_ws/install/kinematic/share/kinematic/cmake/kinematicConfig-version.cmake
[0.641s] -- Up-to-date: /home/alberto/ros2_ws/install/kinematic/share/kinematic/package.xml
[0.678s] Invoked command in '/home/alberto/ros2_ws/build/kinematic' returned '0': CMAKE_PREFIX_PATH=${CMAKE_PREFIX_PATH}:/home/alberto/ros2_ws/install/trajectory:/opt/ros/galactic /usr/bin/cmake --install /home/alberto/ros2_ws/build/kinematic
