Invoking command in '/home/alberto/ros2_ws/build/ur5_description': CMAKE_PREFIX_PATH=${CMAKE_PREFIX_PATH}:/home/alberto/ros2_ws/install/trajectory:/home/alberto/ros2_ws/install/sphere_trajectory:/opt/ros/foxy /usr/bin/cmake --build /home/alberto/ros2_ws/build/ur5_description -- -j4 -l4
Invoked command in '/home/alberto/ros2_ws/build/ur5_description' returned '0': CMAKE_PREFIX_PATH=${CMAKE_PREFIX_PATH}:/home/alberto/ros2_ws/install/trajectory:/home/alberto/ros2_ws/install/sphere_trajectory:/opt/ros/foxy /usr/bin/cmake --build /home/alberto/ros2_ws/build/ur5_description -- -j4 -l4
Invoking command in '/home/alberto/ros2_ws/build/ur5_description': CMAKE_PREFIX_PATH=${CMAKE_PREFIX_PATH}:/home/alberto/ros2_ws/install/trajectory:/home/alberto/ros2_ws/install/sphere_trajectory:/opt/ros/foxy /usr/bin/cmake --install /home/alberto/ros2_ws/build/ur5_description
Invoked command in '/home/alberto/ros2_ws/build/ur5_description' returned '0': CMAKE_PREFIX_PATH=${CMAKE_PREFIX_PATH}:/home/alberto/ros2_ws/install/trajectory:/home/alberto/ros2_ws/install/sphere_trajectory:/opt/ros/foxy /usr/bin/cmake --install /home/alberto/ros2_ws/build/ur5_description
