[0.547s] Invoking command in '/home/alberto/ros2_ws/build/ur5_description': CMAKE_PREFIX_PATH=${CMAKE_PREFIX_PATH}:/home/alberto/ros2_ws/install/trajectory:/home/alberto/ros2_ws/install/sphere_trajectory:/opt/ros/foxy /usr/bin/cmake --build /home/alberto/ros2_ws/build/ur5_description -- -j4 -l4
[0.634s] Invoked command in '/home/alberto/ros2_ws/build/ur5_description' returned '0': CMAKE_PREFIX_PATH=${CMAKE_PREFIX_PATH}:/home/alberto/ros2_ws/install/trajectory:/home/alberto/ros2_ws/install/sphere_trajectory:/opt/ros/foxy /usr/bin/cmake --build /home/alberto/ros2_ws/build/ur5_description -- -j4 -l4
[0.695s] Invoking command in '/home/alberto/ros2_ws/build/ur5_description': CMAKE_PREFIX_PATH=${CMAKE_PREFIX_PATH}:/home/alberto/ros2_ws/install/trajectory:/home/alberto/ros2_ws/install/sphere_trajectory:/opt/ros/foxy /usr/bin/cmake --install /home/alberto/ros2_ws/build/ur5_description
[0.715s] -- Install configuration: ""
[0.715s] -- Up-to-date: /home/alberto/ros2_ws/install/ur5_description/share/ur5_description/launch
[0.715s] -- Up-to-date: /home/alberto/ros2_ws/install/ur5_description/share/ur5_description/launch/ur5_wsg50.launch.py
[0.716s] -- Up-to-date: /home/alberto/ros2_ws/install/ur5_description/share/ur5_description/urdf
[0.716s] -- Up-to-date: /home/alberto/ros2_ws/install/ur5_description/share/ur5_description/urdf/ur5
[0.716s] -- Up-to-date: /home/alberto/ros2_ws/install/ur5_description/share/ur5_description/urdf/ur5/config
[0.717s] -- Up-to-date: /home/alberto/ros2_ws/install/ur5_description/share/ur5_description/urdf/ur5/config/ur5_calibration.yaml
[0.717s] -- Up-to-date: /home/alberto/ros2_ws/install/ur5_description/share/ur5_description/urdf/ur5/ur.transmission.xacro
[0.717s] -- Up-to-date: /home/alberto/ros2_ws/install/ur5_description/share/ur5_description/urdf/ur5/ur5.urdf.xacro
[0.718s] -- Up-to-date: /home/alberto/ros2_ws/install/ur5_description/share/ur5_description/urdf/ur5/ur.gazebo.xacro
[0.718s] -- Up-to-date: /home/alberto/ros2_ws/install/ur5_description/share/ur5_description/urdf/sensors
[0.718s] -- Up-to-date: /home/alberto/ros2_ws/install/ur5_description/share/ur5_description/urdf/sensors/intel_d435.urdf.xacro
[0.719s] -- Up-to-date: /home/alberto/ros2_ws/install/ur5_description/share/ur5_description/urdf/wsg_50
[0.719s] -- Up-to-date: /home/alberto/ros2_ws/install/ur5_description/share/ur5_description/urdf/wsg_50/wsg_50.urdf.xacro
[0.719s] -- Up-to-date: /home/alberto/ros2_ws/install/ur5_description/share/ur5_description/urdf/wsg_50/wsg_50_support.urdf.xacro
[0.720s] -- Up-to-date: /home/alberto/ros2_ws/install/ur5_description/share/ur5_description/urdf/wsg_50/realsense_wrist_support.urdf.xacro
[0.720s] -- Up-to-date: /home/alberto/ros2_ws/install/ur5_description/share/ur5_description/urdf/robot
[0.721s] -- Up-to-date: /home/alberto/ros2_ws/install/ur5_description/share/ur5_description/urdf/robot/ur5_wsg50.urdf
[0.721s] -- Up-to-date: /home/alberto/ros2_ws/install/ur5_description/share/ur5_description/urdf/robot/ur5_wsg50.urdf.xacro
[0.721s] -- Up-to-date: /home/alberto/ros2_ws/install/ur5_description/share/ur5_description/meshes
[0.731s] -- Up-to-date: /home/alberto/ros2_ws/install/ur5_description/share/ur5_description/meshes/ur5
[0.731s] -- Up-to-date: /home/alberto/ros2_ws/install/ur5_description/share/ur5_description/meshes/ur5/visual
[0.731s] -- Up-to-date: /home/alberto/ros2_ws/install/ur5_description/share/ur5_description/meshes/ur5/visual/wrist1.dae
[0.732s] -- Up-to-date: /home/alberto/ros2_ws/install/ur5_description/share/ur5_description/meshes/ur5/visual/wrist3.dae
[0.732s] -- Up-to-date: /home/alberto/ros2_ws/install/ur5_description/share/ur5_description/meshes/ur5/visual/wrist2.dae
[0.732s] -- Up-to-date: /home/alberto/ros2_ws/install/ur5_description/share/ur5_description/meshes/ur5/visual/forearm.dae
[0.732s] -- Up-to-date: /home/alberto/ros2_ws/install/ur5_description/share/ur5_description/meshes/ur5/visual/shoulder.dae
[0.733s] -- Up-to-date: /home/alberto/ros2_ws/install/ur5_description/share/ur5_description/meshes/ur5/visual/upperarm.dae
[0.733s] -- Up-to-date: /home/alberto/ros2_ws/install/ur5_description/share/ur5_description/meshes/ur5/visual/base.dae
[0.733s] -- Up-to-date: /home/alberto/ros2_ws/install/ur5_description/share/ur5_description/meshes/ur5/collision
[0.733s] -- Up-to-date: /home/alberto/ros2_ws/install/ur5_description/share/ur5_description/meshes/ur5/collision/forearm.stl
[0.733s] -- Up-to-date: /home/alberto/ros2_ws/install/ur5_description/share/ur5_description/meshes/ur5/collision/upperarm.stl
[0.734s] -- Up-to-date: /home/alberto/ros2_ws/install/ur5_description/share/ur5_description/meshes/ur5/collision/wrist2.stl
[0.734s] -- Up-to-date: /home/alberto/ros2_ws/install/ur5_description/share/ur5_description/meshes/ur5/collision/shoulder.stl
[0.734s] -- Up-to-date: /home/alberto/ros2_ws/install/ur5_description/share/ur5_description/meshes/ur5/collision/base.stl
[0.734s] -- Up-to-date: /home/alberto/ros2_ws/install/ur5_description/share/ur5_description/meshes/ur5/collision/wrist3.stl
[0.734s] -- Up-to-date: /home/alberto/ros2_ws/install/ur5_description/share/ur5_description/meshes/ur5/collision/wrist1.stl
[0.735s] -- Up-to-date: /home/alberto/ros2_ws/install/ur5_description/share/ur5_description/meshes/sensors
[0.735s] -- Up-to-date: /home/alberto/ros2_ws/install/ur5_description/share/ur5_description/meshes/sensors/intel_realsense_depth_camera_d435.stl
[0.735s] -- Up-to-date: /home/alberto/ros2_ws/install/ur5_description/share/ur5_description/meshes/sensors/intel_realsense_depth_camera_d435.dae
[0.736s] -- Up-to-date: /home/alberto/ros2_ws/install/ur5_description/share/ur5_description/meshes/wsg_50
[0.736s] -- Up-to-date: /home/alberto/ros2_ws/install/ur5_description/share/ur5_description/meshes/wsg_50/GUIDE_WSG50_110.stl
[0.736s] -- Up-to-date: /home/alberto/ros2_ws/install/ur5_description/share/ur5_description/meshes/wsg_50/GUIDE_WSG50_110.dae
[0.736s] -- Up-to-date: /home/alberto/ros2_ws/install/ur5_description/share/ur5_description/meshes/wsg_50/WSG-FMF.dae
[0.736s] -- Up-to-date: /home/alberto/ros2_ws/install/ur5_description/share/ur5_description/meshes/wsg_50/WSG50_110.stl
[0.736s] -- Up-to-date: /home/alberto/ros2_ws/install/ur5_description/share/ur5_description/meshes/wsg_50/WSG-FMF.stl
[0.737s] -- Up-to-date: /home/alberto/ros2_ws/install/ur5_description/share/ur5_description/rviz
[0.737s] -- Up-to-date: /home/alberto/ros2_ws/install/ur5_description/share/ur5_description/rviz/ur5_rviz.rviz
[0.737s] -- Up-to-date: /home/alberto/ros2_ws/install/ur5_description/share/ament_index/resource_index/package_run_dependencies/ur5_description
[0.737s] -- Up-to-date: /home/alberto/ros2_ws/install/ur5_description/share/ament_index/resource_index/parent_prefix_path/ur5_description
[0.737s] -- Up-to-date: /home/alberto/ros2_ws/install/ur5_description/share/ur5_description/environment/ament_prefix_path.sh
[0.738s] -- Up-to-date: /home/alberto/ros2_ws/install/ur5_description/share/ur5_description/environment/ament_prefix_path.dsv
[0.738s] -- Up-to-date: /home/alberto/ros2_ws/install/ur5_description/share/ur5_description/environment/path.sh
[0.738s] -- Up-to-date: /home/alberto/ros2_ws/install/ur5_description/share/ur5_description/environment/path.dsv
[0.738s] -- Up-to-date: /home/alberto/ros2_ws/install/ur5_description/share/ur5_description/local_setup.bash
[0.740s] -- Up-to-date: /home/alberto/ros2_ws/install/ur5_description/share/ur5_description/local_setup.sh
[0.743s] -- Up-to-date: /home/alberto/ros2_ws/install/ur5_description/share/ur5_description/local_setup.zsh
[0.744s] -- Up-to-date: /home/alberto/ros2_ws/install/ur5_description/share/ur5_description/local_setup.dsv
[0.744s] -- Installing: /home/alberto/ros2_ws/install/ur5_description/share/ur5_description/package.dsv
[0.744s] -- Up-to-date: /home/alberto/ros2_ws/install/ur5_description/share/ament_index/resource_index/packages/ur5_description
[0.745s] -- Up-to-date: /home/alberto/ros2_ws/install/ur5_description/share/ur5_description/cmake/ur5_descriptionConfig.cmake
[0.745s] -- Up-to-date: /home/alberto/ros2_ws/install/ur5_description/share/ur5_description/cmake/ur5_descriptionConfig-version.cmake
[0.745s] -- Up-to-date: /home/alberto/ros2_ws/install/ur5_description/share/ur5_description/package.xml
[0.746s] Invoked command in '/home/alberto/ros2_ws/build/ur5_description' returned '0': CMAKE_PREFIX_PATH=${CMAKE_PREFIX_PATH}:/home/alberto/ros2_ws/install/trajectory:/home/alberto/ros2_ws/install/sphere_trajectory:/opt/ros/foxy /usr/bin/cmake --install /home/alberto/ros2_ws/build/ur5_description
