[1.366s] Invoking command in '/home/alberto/ros2_ws/src/sphere_trajectory': PYTHONPATH=/home/alberto/ros2_ws/install/sphere_trajectory/lib/python3.8/site-packages:${PYTHONPATH} /usr/bin/python3 setup.py egg_info --egg-base ../../build/sphere_trajectory build --build-base /home/alberto/ros2_ws/build/sphere_trajectory/build install --prefix /home/alberto/ros2_ws/install/sphere_trajectory --record /home/alberto/ros2_ws/build/sphere_trajectory/install.log --single-version-externally-managed
[1.900s] running egg_info
[1.902s] writing ../../build/sphere_trajectory/sphere_trajectory.egg-info/PKG-INFO
[1.902s] writing dependency_links to ../../build/sphere_trajectory/sphere_trajectory.egg-info/dependency_links.txt
[1.903s] writing entry points to ../../build/sphere_trajectory/sphere_trajectory.egg-info/entry_points.txt
[1.903s] writing requirements to ../../build/sphere_trajectory/sphere_trajectory.egg-info/requires.txt
[1.904s] writing top-level names to ../../build/sphere_trajectory/sphere_trajectory.egg-info/top_level.txt
[1.998s] reading manifest file '../../build/sphere_trajectory/sphere_trajectory.egg-info/SOURCES.txt'
[1.999s] writing manifest file '../../build/sphere_trajectory/sphere_trajectory.egg-info/SOURCES.txt'
[1.999s] running build
[1.999s] running build_py
[1.999s] running install
[2.023s] running install_lib
[2.024s] running install_data
[2.024s] running install_egg_info
[2.024s] removing '/home/alberto/ros2_ws/install/sphere_trajectory/lib/python3.8/site-packages/sphere_trajectory-0.0.0-py3.8.egg-info' (and everything under it)
[2.024s] Copying ../../build/sphere_trajectory/sphere_trajectory.egg-info to /home/alberto/ros2_ws/install/sphere_trajectory/lib/python3.8/site-packages/sphere_trajectory-0.0.0-py3.8.egg-info
[2.024s] running install_scripts
[2.066s] Installing my_node script to /home/alberto/ros2_ws/install/sphere_trajectory/lib/sphere_trajectory
[2.067s] writing list of installed files to '/home/alberto/ros2_ws/build/sphere_trajectory/install.log'
[2.123s] Invoked command in '/home/alberto/ros2_ws/src/sphere_trajectory' returned '0': PYTHONPATH=/home/alberto/ros2_ws/install/sphere_trajectory/lib/python3.8/site-packages:${PYTHONPATH} /usr/bin/python3 setup.py egg_info --egg-base ../../build/sphere_trajectory build --build-base /home/alberto/ros2_ws/build/sphere_trajectory/build install --prefix /home/alberto/ros2_ws/install/sphere_trajectory --record /home/alberto/ros2_ws/build/sphere_trajectory/install.log --single-version-externally-managed
