[100%] Built target trac_ik_lib
-- Install configuration: ""
-- Up-to-date: /home/alberto/ros2_ws/install/trac_ik_lib/share/trac_ik_lib/environment/library_path.sh
-- Up-to-date: /home/alberto/ros2_ws/install/trac_ik_lib/share/trac_ik_lib/environment/library_path.dsv
-- Up-to-date: /home/alberto/ros2_ws/install/trac_ik_lib/include
-- Up-to-date: /home/alberto/ros2_ws/install/trac_ik_lib/include/trac_ik
-- Up-to-date: /home/alberto/ros2_ws/install/trac_ik_lib/include/trac_ik/kdl_tl.hpp
-- Up-to-date: /home/alberto/ros2_ws/install/trac_ik_lib/include/trac_ik/math3d.h
-- Up-to-date: /home/alberto/ros2_ws/install/trac_ik_lib/include/trac_ik/dual_quaternion.h
-- Up-to-date: /home/alberto/ros2_ws/install/trac_ik_lib/include/trac_ik/trac_ik.hpp
-- Up-to-date: /home/alberto/ros2_ws/install/trac_ik_lib/include/trac_ik/visibility_control.hpp
-- Up-to-date: /home/alberto/ros2_ws/install/trac_ik_lib/include/trac_ik/nlopt_ik.hpp
-- Up-to-date: /home/alberto/ros2_ws/install/trac_ik_lib/lib/libtrac_ik_lib.so
-- Up-to-date: /home/alberto/ros2_ws/install/trac_ik_lib/share/ament_index/resource_index/package_run_dependencies/trac_ik_lib
-- Up-to-date: /home/alberto/ros2_ws/install/trac_ik_lib/share/ament_index/resource_index/parent_prefix_path/trac_ik_lib
-- Up-to-date: /home/alberto/ros2_ws/install/trac_ik_lib/share/trac_ik_lib/environment/ament_prefix_path.sh
-- Up-to-date: /home/alberto/ros2_ws/install/trac_ik_lib/share/trac_ik_lib/environment/ament_prefix_path.dsv
-- Up-to-date: /home/alberto/ros2_ws/install/trac_ik_lib/share/trac_ik_lib/environment/path.sh
-- Up-to-date: /home/alberto/ros2_ws/install/trac_ik_lib/share/trac_ik_lib/environment/path.dsv
-- Up-to-date: /home/alberto/ros2_ws/install/trac_ik_lib/share/trac_ik_lib/local_setup.bash
-- Up-to-date: /home/alberto/ros2_ws/install/trac_ik_lib/share/trac_ik_lib/local_setup.sh
-- Up-to-date: /home/alberto/ros2_ws/install/trac_ik_lib/share/trac_ik_lib/local_setup.zsh
-- Up-to-date: /home/alberto/ros2_ws/install/trac_ik_lib/share/trac_ik_lib/local_setup.dsv
-- Installing: /home/alberto/ros2_ws/install/trac_ik_lib/share/trac_ik_lib/package.dsv
-- Up-to-date: /home/alberto/ros2_ws/install/trac_ik_lib/share/ament_index/resource_index/packages/trac_ik_lib
-- Up-to-date: /home/alberto/ros2_ws/install/trac_ik_lib/share/trac_ik_lib/cmake/export_trac_ik_libExport.cmake
-- Up-to-date: /home/alberto/ros2_ws/install/trac_ik_lib/share/trac_ik_lib/cmake/export_trac_ik_libExport-noconfig.cmake
-- Up-to-date: /home/alberto/ros2_ws/install/trac_ik_lib/share/trac_ik_lib/cmake/ament_cmake_export_targets-extras.cmake
-- Up-to-date: /home/alberto/ros2_ws/install/trac_ik_lib/share/trac_ik_lib/cmake/ament_cmake_export_dependencies-extras.cmake
-- Up-to-date: /home/alberto/ros2_ws/install/trac_ik_lib/share/trac_ik_lib/cmake/trac_ik_libConfig.cmake
-- Up-to-date: /home/alberto/ros2_ws/install/trac_ik_lib/share/trac_ik_lib/cmake/trac_ik_libConfig-version.cmake
-- Up-to-date: /home/alberto/ros2_ws/install/trac_ik_lib/share/trac_ik_lib/package.xml
