[0.088s] Invoking command in '/home/alberto/ros2_ws/build/trac_ik_lib': CMAKE_PREFIX_PATH=${CMAKE_PREFIX_PATH}:/home/alberto/ros2_ws/install/trajectory:/home/alberto/ros2_ws/install/sphere_trajectory:/opt/ros/foxy /usr/bin/cmake --build /home/alberto/ros2_ws/build/trac_ik_lib -- -j4 -l4
[0.589s] [100%] Built target trac_ik_lib
[0.593s] Invoked command in '/home/alberto/ros2_ws/build/trac_ik_lib' returned '0': CMAKE_PREFIX_PATH=${CMAKE_PREFIX_PATH}:/home/alberto/ros2_ws/install/trajectory:/home/alberto/ros2_ws/install/sphere_trajectory:/opt/ros/foxy /usr/bin/cmake --build /home/alberto/ros2_ws/build/trac_ik_lib -- -j4 -l4
[0.679s] Invoking command in '/home/alberto/ros2_ws/build/trac_ik_lib': CMAKE_PREFIX_PATH=${CMAKE_PREFIX_PATH}:/home/alberto/ros2_ws/install/trajectory:/home/alberto/ros2_ws/install/sphere_trajectory:/opt/ros/foxy /usr/bin/cmake --install /home/alberto/ros2_ws/build/trac_ik_lib
[0.707s] -- Install configuration: ""
[0.708s] -- Up-to-date: /home/alberto/ros2_ws/install/trac_ik_lib/share/trac_ik_lib/environment/library_path.sh
[0.708s] -- Up-to-date: /home/alberto/ros2_ws/install/trac_ik_lib/share/trac_ik_lib/environment/library_path.dsv
[0.709s] -- Up-to-date: /home/alberto/ros2_ws/install/trac_ik_lib/include
[0.709s] -- Up-to-date: /home/alberto/ros2_ws/install/trac_ik_lib/include/trac_ik
[0.709s] -- Up-to-date: /home/alberto/ros2_ws/install/trac_ik_lib/include/trac_ik/kdl_tl.hpp
[0.710s] -- Up-to-date: /home/alberto/ros2_ws/install/trac_ik_lib/include/trac_ik/math3d.h
[0.710s] -- Up-to-date: /home/alberto/ros2_ws/install/trac_ik_lib/include/trac_ik/dual_quaternion.h
[0.710s] -- Up-to-date: /home/alberto/ros2_ws/install/trac_ik_lib/include/trac_ik/trac_ik.hpp
[0.710s] -- Up-to-date: /home/alberto/ros2_ws/install/trac_ik_lib/include/trac_ik/visibility_control.hpp
[0.711s] -- Up-to-date: /home/alberto/ros2_ws/install/trac_ik_lib/include/trac_ik/nlopt_ik.hpp
[0.711s] -- Up-to-date: /home/alberto/ros2_ws/install/trac_ik_lib/lib/libtrac_ik_lib.so
[0.712s] -- Up-to-date: /home/alberto/ros2_ws/install/trac_ik_lib/share/ament_index/resource_index/package_run_dependencies/trac_ik_lib
[0.712s] -- Up-to-date: /home/alberto/ros2_ws/install/trac_ik_lib/share/ament_index/resource_index/parent_prefix_path/trac_ik_lib
[0.712s] -- Up-to-date: /home/alberto/ros2_ws/install/trac_ik_lib/share/trac_ik_lib/environment/ament_prefix_path.sh
[0.713s] -- Up-to-date: /home/alberto/ros2_ws/install/trac_ik_lib/share/trac_ik_lib/environment/ament_prefix_path.dsv
[0.713s] -- Up-to-date: /home/alberto/ros2_ws/install/trac_ik_lib/share/trac_ik_lib/environment/path.sh
[0.713s] -- Up-to-date: /home/alberto/ros2_ws/install/trac_ik_lib/share/trac_ik_lib/environment/path.dsv
[0.714s] -- Up-to-date: /home/alberto/ros2_ws/install/trac_ik_lib/share/trac_ik_lib/local_setup.bash
[0.715s] -- Up-to-date: /home/alberto/ros2_ws/install/trac_ik_lib/share/trac_ik_lib/local_setup.sh
[0.715s] -- Up-to-date: /home/alberto/ros2_ws/install/trac_ik_lib/share/trac_ik_lib/local_setup.zsh
[0.716s] -- Up-to-date: /home/alberto/ros2_ws/install/trac_ik_lib/share/trac_ik_lib/local_setup.dsv
[0.716s] -- Installing: /home/alberto/ros2_ws/install/trac_ik_lib/share/trac_ik_lib/package.dsv
[0.716s] -- Up-to-date: /home/alberto/ros2_ws/install/trac_ik_lib/share/ament_index/resource_index/packages/trac_ik_lib
[0.717s] -- Up-to-date: /home/alberto/ros2_ws/install/trac_ik_lib/share/trac_ik_lib/cmake/export_trac_ik_libExport.cmake
[0.717s] -- Up-to-date: /home/alberto/ros2_ws/install/trac_ik_lib/share/trac_ik_lib/cmake/export_trac_ik_libExport-noconfig.cmake
[0.718s] -- Up-to-date: /home/alberto/ros2_ws/install/trac_ik_lib/share/trac_ik_lib/cmake/ament_cmake_export_targets-extras.cmake
[0.718s] -- Up-to-date: /home/alberto/ros2_ws/install/trac_ik_lib/share/trac_ik_lib/cmake/ament_cmake_export_dependencies-extras.cmake
[0.719s] -- Up-to-date: /home/alberto/ros2_ws/install/trac_ik_lib/share/trac_ik_lib/cmake/trac_ik_libConfig.cmake
[0.719s] -- Up-to-date: /home/alberto/ros2_ws/install/trac_ik_lib/share/trac_ik_lib/cmake/trac_ik_libConfig-version.cmake
[0.720s] -- Up-to-date: /home/alberto/ros2_ws/install/trac_ik_lib/share/trac_ik_lib/package.xml
[0.765s] Invoked command in '/home/alberto/ros2_ws/build/trac_ik_lib' returned '0': CMAKE_PREFIX_PATH=${CMAKE_PREFIX_PATH}:/home/alberto/ros2_ws/install/trajectory:/home/alberto/ros2_ws/install/sphere_trajectory:/opt/ros/foxy /usr/bin/cmake --install /home/alberto/ros2_ws/build/trac_ik_lib
