[0.097s] Invoking command in '/home/alberto/ros2_ws/build/trac_ik': CMAKE_PREFIX_PATH=/home/alberto/ros2_ws/install/trac_ik_examples:/home/alberto/ros2_ws/install/trac_ik_lib:/home/alberto/ros2_ws/install/xacro:/home/alberto/ros2_ws/install/ur5_description:/home/alberto/ros2_ws/install/trac_ik:/home/alberto/ros2_ws/install/rvc_bringup:/home/alberto/ros2_ws/install/kinematic:/home/alberto/ros2_ws/install/trajectory:/home/alberto/ros2_ws/install/sphere_trajectory:/opt/ros/galactic /usr/bin/cmake --build /home/alberto/ros2_ws/build/trac_ik -- -j4 -l4
[0.203s] Invoked command in '/home/alberto/ros2_ws/build/trac_ik' returned '0': CMAKE_PREFIX_PATH=/home/alberto/ros2_ws/install/trac_ik_examples:/home/alberto/ros2_ws/install/trac_ik_lib:/home/alberto/ros2_ws/install/xacro:/home/alberto/ros2_ws/install/ur5_description:/home/alberto/ros2_ws/install/trac_ik:/home/alberto/ros2_ws/install/rvc_bringup:/home/alberto/ros2_ws/install/kinematic:/home/alberto/ros2_ws/install/trajectory:/home/alberto/ros2_ws/install/sphere_trajectory:/opt/ros/galactic /usr/bin/cmake --build /home/alberto/ros2_ws/build/trac_ik -- -j4 -l4
[0.270s] Invoking command in '/home/alberto/ros2_ws/build/trac_ik': CMAKE_PREFIX_PATH=/home/alberto/ros2_ws/install/trac_ik_examples:/home/alberto/ros2_ws/install/trac_ik_lib:/home/alberto/ros2_ws/install/xacro:/home/alberto/ros2_ws/install/ur5_description:/home/alberto/ros2_ws/install/trac_ik:/home/alberto/ros2_ws/install/rvc_bringup:/home/alberto/ros2_ws/install/kinematic:/home/alberto/ros2_ws/install/trajectory:/home/alberto/ros2_ws/install/sphere_trajectory:/opt/ros/galactic /usr/bin/cmake --install /home/alberto/ros2_ws/build/trac_ik
[0.306s] -- Install configuration: ""
[0.306s] -- Up-to-date: /home/alberto/ros2_ws/install/trac_ik/share/ament_index/resource_index/package_run_dependencies/trac_ik
[0.306s] -- Up-to-date: /home/alberto/ros2_ws/install/trac_ik/share/ament_index/resource_index/parent_prefix_path/trac_ik
[0.306s] -- Up-to-date: /home/alberto/ros2_ws/install/trac_ik/share/trac_ik/environment/ament_prefix_path.sh
[0.307s] -- Up-to-date: /home/alberto/ros2_ws/install/trac_ik/share/trac_ik/environment/ament_prefix_path.dsv
[0.307s] -- Up-to-date: /home/alberto/ros2_ws/install/trac_ik/share/trac_ik/environment/path.sh
[0.307s] -- Up-to-date: /home/alberto/ros2_ws/install/trac_ik/share/trac_ik/environment/path.dsv
[0.307s] -- Up-to-date: /home/alberto/ros2_ws/install/trac_ik/share/trac_ik/local_setup.bash
[0.308s] -- Up-to-date: /home/alberto/ros2_ws/install/trac_ik/share/trac_ik/local_setup.sh
[0.308s] -- Up-to-date: /home/alberto/ros2_ws/install/trac_ik/share/trac_ik/local_setup.zsh
[0.309s] -- Up-to-date: /home/alberto/ros2_ws/install/trac_ik/share/trac_ik/local_setup.dsv
[0.309s] -- Installing: /home/alberto/ros2_ws/install/trac_ik/share/trac_ik/package.dsv
[0.315s] -- Up-to-date: /home/alberto/ros2_ws/install/trac_ik/share/ament_index/resource_index/packages/trac_ik
[0.322s] -- Up-to-date: /home/alberto/ros2_ws/install/trac_ik/share/trac_ik/cmake/trac_ikConfig.cmake
[0.323s] -- Up-to-date: /home/alberto/ros2_ws/install/trac_ik/share/trac_ik/cmake/trac_ikConfig-version.cmake
[0.323s] -- Up-to-date: /home/alberto/ros2_ws/install/trac_ik/share/trac_ik/package.xml
[0.323s] Invoked command in '/home/alberto/ros2_ws/build/trac_ik' returned '0': CMAKE_PREFIX_PATH=/home/alberto/ros2_ws/install/trac_ik_examples:/home/alberto/ros2_ws/install/trac_ik_lib:/home/alberto/ros2_ws/install/xacro:/home/alberto/ros2_ws/install/ur5_description:/home/alberto/ros2_ws/install/trac_ik:/home/alberto/ros2_ws/install/rvc_bringup:/home/alberto/ros2_ws/install/kinematic:/home/alberto/ros2_ws/install/trajectory:/home/alberto/ros2_ws/install/sphere_trajectory:/opt/ros/galactic /usr/bin/cmake --install /home/alberto/ros2_ws/build/trac_ik
