[0.297s] DEBUG:colcon:Command line arguments: ['/usr/bin/colcon', 'build']
[0.297s] DEBUG:colcon:Parsed command line arguments: Namespace(allow_overriding=[], ament_cmake_args=None, base_paths=['.'], build_base='build', catkin_cmake_args=None, catkin_skip_building_tests=False, cmake_args=None, cmake_clean_cache=False, cmake_clean_first=False, cmake_force_configure=False, cmake_target=None, cmake_target_skip_unavailable=False, continue_on_error=False, event_handlers=None, executor='parallel', ignore_user_meta=False, install_base='install', log_base=None, log_level=None, main=<bound method BuildVerb.main of <colcon_core.verb.build.BuildVerb object at 0x7f2eea868bb0>>, merge_install=False, metas=['./colcon.meta'], packages_above=None, packages_above_and_dependencies=None, packages_above_depth=None, packages_end=None, packages_ignore=None, packages_ignore_regex=None, packages_select=None, packages_select_build_failed=False, packages_select_by_dep=None, packages_select_regex=None, packages_select_test_failures=False, packages_skip=None, packages_skip_build_finished=False, packages_skip_by_dep=None, packages_skip_regex=None, packages_skip_test_passed=False, packages_skip_up_to=None, packages_start=None, packages_up_to=None, packages_up_to_regex=None, parallel_workers=4, paths=None, symlink_install=False, test_result_base=None, verb_extension=<colcon_core.verb.build.BuildVerb object at 0x7f2eea868bb0>, verb_name='build', verb_parser=<colcon_defaults.argument_parser.defaults.DefaultArgumentsDecorator object at 0x7f2eea872160>)
[0.342s] Level 1:colcon.colcon_core.package_discovery:discover_packages(colcon_meta) check parameters
[0.342s] Level 1:colcon.colcon_core.package_discovery:discover_packages(recursive) check parameters
[0.342s] Level 1:colcon.colcon_core.package_discovery:discover_packages(ignore) check parameters
[0.342s] Level 1:colcon.colcon_core.package_discovery:discover_packages(path) check parameters
[0.342s] Level 1:colcon.colcon_core.package_discovery:discover_packages(colcon_meta) discover
[0.343s] Level 1:colcon.colcon_core.package_discovery:discover_packages(recursive) discover
[0.343s] INFO:colcon.colcon_core.package_discovery:Crawling recursively for packages in '/home/alberto/ros2_ws'
[0.343s] Level 1:colcon.colcon_core.package_identification:_identify(.) by extensions ['ignore', 'ignore_ament_install']
[0.343s] Level 1:colcon.colcon_core.package_identification:_identify(.) by extension 'ignore'
[0.343s] Level 1:colcon.colcon_core.package_identification:_identify(.) by extension 'ignore_ament_install'
[0.344s] Level 1:colcon.colcon_core.package_identification:_identify(.) by extensions ['colcon_pkg']
[0.344s] Level 1:colcon.colcon_core.package_identification:_identify(.) by extension 'colcon_pkg'
[0.344s] Level 1:colcon.colcon_core.package_identification:_identify(.) by extensions ['colcon_meta']
[0.344s] Level 1:colcon.colcon_core.package_identification:_identify(.) by extension 'colcon_meta'
[0.344s] Level 1:colcon.colcon_core.package_identification:_identify(.) by extensions ['ros']
[0.344s] Level 1:colcon.colcon_core.package_identification:_identify(.) by extension 'ros'
[0.370s] Level 1:colcon.colcon_core.package_identification:_identify(.) by extensions ['cmake', 'python']
[0.370s] Level 1:colcon.colcon_core.package_identification:_identify(.) by extension 'cmake'
[0.370s] Level 1:colcon.colcon_core.package_identification:_identify(.) by extension 'python'
[0.370s] Level 1:colcon.colcon_core.package_identification:_identify(.) by extensions ['python_setup_py']
[0.370s] Level 1:colcon.colcon_core.package_identification:_identify(.) by extension 'python_setup_py'
[0.371s] Level 1:colcon.colcon_core.package_identification:_identify(build) by extensions ['ignore', 'ignore_ament_install']
[0.371s] Level 1:colcon.colcon_core.package_identification:_identify(build) by extension 'ignore'
[0.371s] Level 1:colcon.colcon_core.package_identification:_identify(build) ignored
[0.371s] Level 1:colcon.colcon_core.package_identification:_identify(install) by extensions ['ignore', 'ignore_ament_install']
[0.371s] Level 1:colcon.colcon_core.package_identification:_identify(install) by extension 'ignore'
[0.371s] Level 1:colcon.colcon_core.package_identification:_identify(install) ignored
[0.371s] Level 1:colcon.colcon_core.package_identification:_identify(log) by extensions ['ignore', 'ignore_ament_install']
[0.372s] Level 1:colcon.colcon_core.package_identification:_identify(log) by extension 'ignore'
[0.372s] Level 1:colcon.colcon_core.package_identification:_identify(log) ignored
[0.372s] Level 1:colcon.colcon_core.package_identification:_identify(src) by extensions ['ignore', 'ignore_ament_install']
[0.372s] Level 1:colcon.colcon_core.package_identification:_identify(src) by extension 'ignore'
[0.372s] Level 1:colcon.colcon_core.package_identification:_identify(src) by extension 'ignore_ament_install'
[0.372s] Level 1:colcon.colcon_core.package_identification:_identify(src) by extensions ['colcon_pkg']
[0.372s] Level 1:colcon.colcon_core.package_identification:_identify(src) by extension 'colcon_pkg'
[0.372s] Level 1:colcon.colcon_core.package_identification:_identify(src) by extensions ['colcon_meta']
[0.372s] Level 1:colcon.colcon_core.package_identification:_identify(src) by extension 'colcon_meta'
[0.372s] Level 1:colcon.colcon_core.package_identification:_identify(src) by extensions ['ros']
[0.372s] Level 1:colcon.colcon_core.package_identification:_identify(src) by extension 'ros'
[0.373s] Level 1:colcon.colcon_core.package_identification:_identify(src) by extensions ['cmake', 'python']
[0.373s] Level 1:colcon.colcon_core.package_identification:_identify(src) by extension 'cmake'
[0.373s] Level 1:colcon.colcon_core.package_identification:_identify(src) by extension 'python'
[0.373s] Level 1:colcon.colcon_core.package_identification:_identify(src) by extensions ['python_setup_py']
[0.373s] Level 1:colcon.colcon_core.package_identification:_identify(src) by extension 'python_setup_py'
[0.373s] Level 1:colcon.colcon_core.package_identification:_identify(src/kinematic) by extensions ['ignore', 'ignore_ament_install']
[0.373s] Level 1:colcon.colcon_core.package_identification:_identify(src/kinematic) by extension 'ignore'
[0.373s] Level 1:colcon.colcon_core.package_identification:_identify(src/kinematic) by extension 'ignore_ament_install'
[0.373s] Level 1:colcon.colcon_core.package_identification:_identify(src/kinematic) by extensions ['colcon_pkg']
[0.374s] Level 1:colcon.colcon_core.package_identification:_identify(src/kinematic) by extension 'colcon_pkg'
[0.374s] Level 1:colcon.colcon_core.package_identification:_identify(src/kinematic) by extensions ['colcon_meta']
[0.374s] Level 1:colcon.colcon_core.package_identification:_identify(src/kinematic) by extension 'colcon_meta'
[0.374s] Level 1:colcon.colcon_core.package_identification:_identify(src/kinematic) by extensions ['ros']
[0.374s] Level 1:colcon.colcon_core.package_identification:_identify(src/kinematic) by extension 'ros'
[0.381s] DEBUG:colcon.colcon_core.package_identification:Package 'src/kinematic' with type 'ros.ament_cmake' and name 'kinematic'
[0.381s] Level 1:colcon.colcon_core.package_identification:_identify(src/rvc_bringup) by extensions ['ignore', 'ignore_ament_install']
[0.381s] Level 1:colcon.colcon_core.package_identification:_identify(src/rvc_bringup) by extension 'ignore'
[0.382s] Level 1:colcon.colcon_core.package_identification:_identify(src/rvc_bringup) by extension 'ignore_ament_install'
[0.382s] Level 1:colcon.colcon_core.package_identification:_identify(src/rvc_bringup) by extensions ['colcon_pkg']
[0.382s] Level 1:colcon.colcon_core.package_identification:_identify(src/rvc_bringup) by extension 'colcon_pkg'
[0.382s] Level 1:colcon.colcon_core.package_identification:_identify(src/rvc_bringup) by extensions ['colcon_meta']
[0.382s] Level 1:colcon.colcon_core.package_identification:_identify(src/rvc_bringup) by extension 'colcon_meta'
[0.382s] Level 1:colcon.colcon_core.package_identification:_identify(src/rvc_bringup) by extensions ['ros']
[0.382s] Level 1:colcon.colcon_core.package_identification:_identify(src/rvc_bringup) by extension 'ros'
[0.383s] DEBUG:colcon.colcon_core.package_identification:Package 'src/rvc_bringup' with type 'ros.ament_cmake' and name 'rvc_bringup'
[0.383s] Level 1:colcon.colcon_core.package_identification:_identify(src/sphere_trajectory) by extensions ['ignore', 'ignore_ament_install']
[0.383s] Level 1:colcon.colcon_core.package_identification:_identify(src/sphere_trajectory) by extension 'ignore'
[0.383s] Level 1:colcon.colcon_core.package_identification:_identify(src/sphere_trajectory) by extension 'ignore_ament_install'
[0.383s] Level 1:colcon.colcon_core.package_identification:_identify(src/sphere_trajectory) by extensions ['colcon_pkg']
[0.383s] Level 1:colcon.colcon_core.package_identification:_identify(src/sphere_trajectory) by extension 'colcon_pkg'
[0.383s] Level 1:colcon.colcon_core.package_identification:_identify(src/sphere_trajectory) by extensions ['colcon_meta']
[0.383s] Level 1:colcon.colcon_core.package_identification:_identify(src/sphere_trajectory) by extension 'colcon_meta'
[0.383s] Level 1:colcon.colcon_core.package_identification:_identify(src/sphere_trajectory) by extensions ['ros']
[0.383s] Level 1:colcon.colcon_core.package_identification:_identify(src/sphere_trajectory) by extension 'ros'
[0.384s] DEBUG:colcon.colcon_core.package_identification:Package 'src/sphere_trajectory' with type 'ros.ament_python' and name 'sphere_trajectory'
[0.384s] Level 1:colcon.colcon_core.package_identification:_identify(src/trac_ik) by extensions ['ignore', 'ignore_ament_install']
[0.384s] Level 1:colcon.colcon_core.package_identification:_identify(src/trac_ik) by extension 'ignore'
[0.384s] Level 1:colcon.colcon_core.package_identification:_identify(src/trac_ik) by extension 'ignore_ament_install'
[0.385s] Level 1:colcon.colcon_core.package_identification:_identify(src/trac_ik) by extensions ['colcon_pkg']
[0.385s] Level 1:colcon.colcon_core.package_identification:_identify(src/trac_ik) by extension 'colcon_pkg'
[0.385s] Level 1:colcon.colcon_core.package_identification:_identify(src/trac_ik) by extensions ['colcon_meta']
[0.385s] Level 1:colcon.colcon_core.package_identification:_identify(src/trac_ik) by extension 'colcon_meta'
[0.385s] Level 1:colcon.colcon_core.package_identification:_identify(src/trac_ik) by extensions ['ros']
[0.385s] Level 1:colcon.colcon_core.package_identification:_identify(src/trac_ik) by extension 'ros'
[0.385s] Level 1:colcon.colcon_core.package_identification:_identify(src/trac_ik) by extensions ['cmake', 'python']
[0.385s] Level 1:colcon.colcon_core.package_identification:_identify(src/trac_ik) by extension 'cmake'
[0.385s] Level 1:colcon.colcon_core.package_identification:_identify(src/trac_ik) by extension 'python'
[0.385s] Level 1:colcon.colcon_core.package_identification:_identify(src/trac_ik) by extensions ['python_setup_py']
[0.385s] Level 1:colcon.colcon_core.package_identification:_identify(src/trac_ik) by extension 'python_setup_py'
[0.386s] Level 1:colcon.colcon_core.package_identification:_identify(src/trac_ik/trac_ik) by extensions ['ignore', 'ignore_ament_install']
[0.386s] Level 1:colcon.colcon_core.package_identification:_identify(src/trac_ik/trac_ik) by extension 'ignore'
[0.386s] Level 1:colcon.colcon_core.package_identification:_identify(src/trac_ik/trac_ik) by extension 'ignore_ament_install'
[0.386s] Level 1:colcon.colcon_core.package_identification:_identify(src/trac_ik/trac_ik) by extensions ['colcon_pkg']
[0.386s] Level 1:colcon.colcon_core.package_identification:_identify(src/trac_ik/trac_ik) by extension 'colcon_pkg'
[0.386s] Level 1:colcon.colcon_core.package_identification:_identify(src/trac_ik/trac_ik) by extensions ['colcon_meta']
[0.386s] Level 1:colcon.colcon_core.package_identification:_identify(src/trac_ik/trac_ik) by extension 'colcon_meta'
[0.386s] Level 1:colcon.colcon_core.package_identification:_identify(src/trac_ik/trac_ik) by extensions ['ros']
[0.386s] Level 1:colcon.colcon_core.package_identification:_identify(src/trac_ik/trac_ik) by extension 'ros'
[0.387s] DEBUG:colcon.colcon_core.package_identification:Package 'src/trac_ik/trac_ik' with type 'ros.ament_cmake' and name 'trac_ik'
[0.387s] Level 1:colcon.colcon_core.package_identification:_identify(src/trac_ik/trac_ik_examples) by extensions ['ignore', 'ignore_ament_install']
[0.387s] Level 1:colcon.colcon_core.package_identification:_identify(src/trac_ik/trac_ik_examples) by extension 'ignore'
[0.387s] Level 1:colcon.colcon_core.package_identification:_identify(src/trac_ik/trac_ik_examples) by extension 'ignore_ament_install'
[0.387s] Level 1:colcon.colcon_core.package_identification:_identify(src/trac_ik/trac_ik_examples) by extensions ['colcon_pkg']
[0.387s] Level 1:colcon.colcon_core.package_identification:_identify(src/trac_ik/trac_ik_examples) by extension 'colcon_pkg'
[0.387s] Level 1:colcon.colcon_core.package_identification:_identify(src/trac_ik/trac_ik_examples) by extensions ['colcon_meta']
[0.387s] Level 1:colcon.colcon_core.package_identification:_identify(src/trac_ik/trac_ik_examples) by extension 'colcon_meta'
[0.387s] Level 1:colcon.colcon_core.package_identification:_identify(src/trac_ik/trac_ik_examples) by extensions ['ros']
[0.387s] Level 1:colcon.colcon_core.package_identification:_identify(src/trac_ik/trac_ik_examples) by extension 'ros'
[0.405s] DEBUG:colcon.colcon_core.package_identification:Package 'src/trac_ik/trac_ik_examples' with type 'ros.ament_cmake' and name 'trac_ik_examples'
[0.405s] Level 1:colcon.colcon_core.package_identification:_identify(src/trac_ik/trac_ik_kinematics_plugin) by extensions ['ignore', 'ignore_ament_install']
[0.405s] Level 1:colcon.colcon_core.package_identification:_identify(src/trac_ik/trac_ik_kinematics_plugin) by extension 'ignore'
[0.406s] Level 1:colcon.colcon_core.package_identification:_identify(src/trac_ik/trac_ik_kinematics_plugin) ignored
[0.406s] Level 1:colcon.colcon_core.package_identification:_identify(src/trac_ik/trac_ik_lib) by extensions ['ignore', 'ignore_ament_install']
[0.406s] Level 1:colcon.colcon_core.package_identification:_identify(src/trac_ik/trac_ik_lib) by extension 'ignore'
[0.406s] Level 1:colcon.colcon_core.package_identification:_identify(src/trac_ik/trac_ik_lib) by extension 'ignore_ament_install'
[0.406s] Level 1:colcon.colcon_core.package_identification:_identify(src/trac_ik/trac_ik_lib) by extensions ['colcon_pkg']
[0.406s] Level 1:colcon.colcon_core.package_identification:_identify(src/trac_ik/trac_ik_lib) by extension 'colcon_pkg'
[0.406s] Level 1:colcon.colcon_core.package_identification:_identify(src/trac_ik/trac_ik_lib) by extensions ['colcon_meta']
[0.406s] Level 1:colcon.colcon_core.package_identification:_identify(src/trac_ik/trac_ik_lib) by extension 'colcon_meta'
[0.406s] Level 1:colcon.colcon_core.package_identification:_identify(src/trac_ik/trac_ik_lib) by extensions ['ros']
[0.406s] Level 1:colcon.colcon_core.package_identification:_identify(src/trac_ik/trac_ik_lib) by extension 'ros'
[0.407s] DEBUG:colcon.colcon_core.package_identification:Package 'src/trac_ik/trac_ik_lib' with type 'ros.ament_cmake' and name 'trac_ik_lib'
[0.407s] Level 1:colcon.colcon_core.package_identification:_identify(src/trac_ik/trac_ik_python) by extensions ['ignore', 'ignore_ament_install']
[0.407s] Level 1:colcon.colcon_core.package_identification:_identify(src/trac_ik/trac_ik_python) by extension 'ignore'
[0.408s] Level 1:colcon.colcon_core.package_identification:_identify(src/trac_ik/trac_ik_python) ignored
[0.408s] Level 1:colcon.colcon_core.package_identification:_identify(src/trajectory) by extensions ['ignore', 'ignore_ament_install']
[0.408s] Level 1:colcon.colcon_core.package_identification:_identify(src/trajectory) by extension 'ignore'
[0.408s] Level 1:colcon.colcon_core.package_identification:_identify(src/trajectory) by extension 'ignore_ament_install'
[0.408s] Level 1:colcon.colcon_core.package_identification:_identify(src/trajectory) by extensions ['colcon_pkg']
[0.408s] Level 1:colcon.colcon_core.package_identification:_identify(src/trajectory) by extension 'colcon_pkg'
[0.408s] Level 1:colcon.colcon_core.package_identification:_identify(src/trajectory) by extensions ['colcon_meta']
[0.408s] Level 1:colcon.colcon_core.package_identification:_identify(src/trajectory) by extension 'colcon_meta'
[0.409s] Level 1:colcon.colcon_core.package_identification:_identify(src/trajectory) by extensions ['ros']
[0.409s] Level 1:colcon.colcon_core.package_identification:_identify(src/trajectory) by extension 'ros'
[0.410s] DEBUG:colcon.colcon_core.package_identification:Package 'src/trajectory' with type 'ros.ament_python' and name 'trajectory'
[0.410s] Level 1:colcon.colcon_core.package_identification:_identify(src/ur5_description) by extensions ['ignore', 'ignore_ament_install']
[0.410s] Level 1:colcon.colcon_core.package_identification:_identify(src/ur5_description) by extension 'ignore'
[0.410s] Level 1:colcon.colcon_core.package_identification:_identify(src/ur5_description) by extension 'ignore_ament_install'
[0.410s] Level 1:colcon.colcon_core.package_identification:_identify(src/ur5_description) by extensions ['colcon_pkg']
[0.411s] Level 1:colcon.colcon_core.package_identification:_identify(src/ur5_description) by extension 'colcon_pkg'
[0.411s] Level 1:colcon.colcon_core.package_identification:_identify(src/ur5_description) by extensions ['colcon_meta']
[0.411s] Level 1:colcon.colcon_core.package_identification:_identify(src/ur5_description) by extension 'colcon_meta'
[0.411s] Level 1:colcon.colcon_core.package_identification:_identify(src/ur5_description) by extensions ['ros']
[0.411s] Level 1:colcon.colcon_core.package_identification:_identify(src/ur5_description) by extension 'ros'
[0.412s] DEBUG:colcon.colcon_core.package_identification:Package 'src/ur5_description' with type 'ros.ament_cmake' and name 'ur5_description'
[0.413s] Level 1:colcon.colcon_core.package_identification:_identify(src/xacro-ros2) by extensions ['ignore', 'ignore_ament_install']
[0.413s] Level 1:colcon.colcon_core.package_identification:_identify(src/xacro-ros2) by extension 'ignore'
[0.413s] Level 1:colcon.colcon_core.package_identification:_identify(src/xacro-ros2) by extension 'ignore_ament_install'
[0.413s] Level 1:colcon.colcon_core.package_identification:_identify(src/xacro-ros2) by extensions ['colcon_pkg']
[0.413s] Level 1:colcon.colcon_core.package_identification:_identify(src/xacro-ros2) by extension 'colcon_pkg'
[0.414s] Level 1:colcon.colcon_core.package_identification:_identify(src/xacro-ros2) by extensions ['colcon_meta']
[0.414s] Level 1:colcon.colcon_core.package_identification:_identify(src/xacro-ros2) by extension 'colcon_meta'
[0.414s] Level 1:colcon.colcon_core.package_identification:_identify(src/xacro-ros2) by extensions ['ros']
[0.414s] Level 1:colcon.colcon_core.package_identification:_identify(src/xacro-ros2) by extension 'ros'
[0.416s] DEBUG:colcon.colcon_core.package_identification:Package 'src/xacro-ros2' with type 'ros.ament_cmake' and name 'xacro'
[0.416s] Level 1:colcon.colcon_core.package_discovery:discover_packages(recursive) using defaults
[0.416s] Level 1:colcon.colcon_core.package_discovery:discover_packages(ignore) discover
[0.416s] Level 1:colcon.colcon_core.package_discovery:discover_packages(ignore) using defaults
[0.416s] Level 1:colcon.colcon_core.package_discovery:discover_packages(path) discover
[0.416s] Level 1:colcon.colcon_core.package_discovery:discover_packages(path) using defaults
[0.447s] INFO:colcon.colcon_metadata.metadata.colcon_pkg:Updating descriptor of package 'src/xacro-ros2' from colcon.pkg: {'hooks': ['share/xacro/environment/completion.bash']}
[0.453s] Level 1:colcon.colcon_core.package_discovery:discover_packages(prefix_path) check parameters
[0.453s] Level 1:colcon.colcon_core.package_discovery:discover_packages(prefix_path) discover
[0.458s] DEBUG:colcon.colcon_installed_package_information.package_discovery:Found 9 installed packages in /home/alberto/ros2_ws/install
[0.463s] DEBUG:colcon.colcon_installed_package_information.package_discovery:Found 303 installed packages in /opt/ros/foxy
[0.467s] Level 1:colcon.colcon_core.package_discovery:discover_packages(prefix_path) using defaults
[0.605s] Level 5:colcon.colcon_core.verb:set package 'kinematic' build argument 'cmake_args' from command line to 'None'
[0.605s] Level 5:colcon.colcon_core.verb:set package 'kinematic' build argument 'cmake_target' from command line to 'None'
[0.605s] Level 5:colcon.colcon_core.verb:set package 'kinematic' build argument 'cmake_target_skip_unavailable' from command line to 'False'
[0.605s] Level 5:colcon.colcon_core.verb:set package 'kinematic' build argument 'cmake_clean_cache' from command line to 'False'
[0.605s] Level 5:colcon.colcon_core.verb:set package 'kinematic' build argument 'cmake_clean_first' from command line to 'False'
[0.605s] Level 5:colcon.colcon_core.verb:set package 'kinematic' build argument 'cmake_force_configure' from command line to 'False'
[0.605s] Level 5:colcon.colcon_core.verb:set package 'kinematic' build argument 'ament_cmake_args' from command line to 'None'
[0.605s] Level 5:colcon.colcon_core.verb:set package 'kinematic' build argument 'catkin_cmake_args' from command line to 'None'
[0.605s] Level 5:colcon.colcon_core.verb:set package 'kinematic' build argument 'catkin_skip_building_tests' from command line to 'False'
[0.605s] DEBUG:colcon.colcon_core.verb:Building package 'kinematic' with the following arguments: {'ament_cmake_args': None, 'build_base': '/home/alberto/ros2_ws/build/kinematic', 'catkin_cmake_args': None, 'catkin_skip_building_tests': False, 'cmake_args': None, 'cmake_clean_cache': False, 'cmake_clean_first': False, 'cmake_force_configure': False, 'cmake_target': None, 'cmake_target_skip_unavailable': False, 'install_base': '/home/alberto/ros2_ws/install/kinematic', 'merge_install': False, 'path': '/home/alberto/ros2_ws/src/kinematic', 'symlink_install': False, 'test_result_base': None}
[0.607s] Level 5:colcon.colcon_core.verb:set package 'rvc_bringup' build argument 'cmake_args' from command line to 'None'
[0.607s] Level 5:colcon.colcon_core.verb:set package 'rvc_bringup' build argument 'cmake_target' from command line to 'None'
[0.607s] Level 5:colcon.colcon_core.verb:set package 'rvc_bringup' build argument 'cmake_target_skip_unavailable' from command line to 'False'
[0.607s] Level 5:colcon.colcon_core.verb:set package 'rvc_bringup' build argument 'cmake_clean_cache' from command line to 'False'
[0.607s] Level 5:colcon.colcon_core.verb:set package 'rvc_bringup' build argument 'cmake_clean_first' from command line to 'False'
[0.607s] Level 5:colcon.colcon_core.verb:set package 'rvc_bringup' build argument 'cmake_force_configure' from command line to 'False'
[0.607s] Level 5:colcon.colcon_core.verb:set package 'rvc_bringup' build argument 'ament_cmake_args' from command line to 'None'
[0.607s] Level 5:colcon.colcon_core.verb:set package 'rvc_bringup' build argument 'catkin_cmake_args' from command line to 'None'
[0.607s] Level 5:colcon.colcon_core.verb:set package 'rvc_bringup' build argument 'catkin_skip_building_tests' from command line to 'False'
[0.607s] DEBUG:colcon.colcon_core.verb:Building package 'rvc_bringup' with the following arguments: {'ament_cmake_args': None, 'build_base': '/home/alberto/ros2_ws/build/rvc_bringup', 'catkin_cmake_args': None, 'catkin_skip_building_tests': False, 'cmake_args': None, 'cmake_clean_cache': False, 'cmake_clean_first': False, 'cmake_force_configure': False, 'cmake_target': None, 'cmake_target_skip_unavailable': False, 'install_base': '/home/alberto/ros2_ws/install/rvc_bringup', 'merge_install': False, 'path': '/home/alberto/ros2_ws/src/rvc_bringup', 'symlink_install': False, 'test_result_base': None}
[0.610s] Level 5:colcon.colcon_core.verb:set package 'sphere_trajectory' build argument 'cmake_args' from command line to 'None'
[0.610s] Level 5:colcon.colcon_core.verb:set package 'sphere_trajectory' build argument 'cmake_target' from command line to 'None'
[0.610s] Level 5:colcon.colcon_core.verb:set package 'sphere_trajectory' build argument 'cmake_target_skip_unavailable' from command line to 'False'
[0.610s] Level 5:colcon.colcon_core.verb:set package 'sphere_trajectory' build argument 'cmake_clean_cache' from command line to 'False'
[0.610s] Level 5:colcon.colcon_core.verb:set package 'sphere_trajectory' build argument 'cmake_clean_first' from command line to 'False'
[0.610s] Level 5:colcon.colcon_core.verb:set package 'sphere_trajectory' build argument 'cmake_force_configure' from command line to 'False'
[0.610s] Level 5:colcon.colcon_core.verb:set package 'sphere_trajectory' build argument 'ament_cmake_args' from command line to 'None'
[0.610s] Level 5:colcon.colcon_core.verb:set package 'sphere_trajectory' build argument 'catkin_cmake_args' from command line to 'None'
[0.610s] Level 5:colcon.colcon_core.verb:set package 'sphere_trajectory' build argument 'catkin_skip_building_tests' from command line to 'False'
[0.610s] DEBUG:colcon.colcon_core.verb:Building package 'sphere_trajectory' with the following arguments: {'ament_cmake_args': None, 'build_base': '/home/alberto/ros2_ws/build/sphere_trajectory', 'catkin_cmake_args': None, 'catkin_skip_building_tests': False, 'cmake_args': None, 'cmake_clean_cache': False, 'cmake_clean_first': False, 'cmake_force_configure': False, 'cmake_target': None, 'cmake_target_skip_unavailable': False, 'install_base': '/home/alberto/ros2_ws/install/sphere_trajectory', 'merge_install': False, 'path': '/home/alberto/ros2_ws/src/sphere_trajectory', 'symlink_install': False, 'test_result_base': None}
[0.612s] Level 5:colcon.colcon_core.verb:set package 'trac_ik_lib' build argument 'cmake_args' from command line to 'None'
[0.612s] Level 5:colcon.colcon_core.verb:set package 'trac_ik_lib' build argument 'cmake_target' from command line to 'None'
[0.612s] Level 5:colcon.colcon_core.verb:set package 'trac_ik_lib' build argument 'cmake_target_skip_unavailable' from command line to 'False'
[0.612s] Level 5:colcon.colcon_core.verb:set package 'trac_ik_lib' build argument 'cmake_clean_cache' from command line to 'False'
[0.612s] Level 5:colcon.colcon_core.verb:set package 'trac_ik_lib' build argument 'cmake_clean_first' from command line to 'False'
[0.612s] Level 5:colcon.colcon_core.verb:set package 'trac_ik_lib' build argument 'cmake_force_configure' from command line to 'False'
[0.612s] Level 5:colcon.colcon_core.verb:set package 'trac_ik_lib' build argument 'ament_cmake_args' from command line to 'None'
[0.612s] Level 5:colcon.colcon_core.verb:set package 'trac_ik_lib' build argument 'catkin_cmake_args' from command line to 'None'
[0.612s] Level 5:colcon.colcon_core.verb:set package 'trac_ik_lib' build argument 'catkin_skip_building_tests' from command line to 'False'
[0.613s] DEBUG:colcon.colcon_core.verb:Building package 'trac_ik_lib' with the following arguments: {'ament_cmake_args': None, 'build_base': '/home/alberto/ros2_ws/build/trac_ik_lib', 'catkin_cmake_args': None, 'catkin_skip_building_tests': False, 'cmake_args': None, 'cmake_clean_cache': False, 'cmake_clean_first': False, 'cmake_force_configure': False, 'cmake_target': None, 'cmake_target_skip_unavailable': False, 'install_base': '/home/alberto/ros2_ws/install/trac_ik_lib', 'merge_install': False, 'path': '/home/alberto/ros2_ws/src/trac_ik/trac_ik_lib', 'symlink_install': False, 'test_result_base': None}
[0.615s] Level 5:colcon.colcon_core.verb:set package 'trajectory' build argument 'cmake_args' from command line to 'None'
[0.615s] Level 5:colcon.colcon_core.verb:set package 'trajectory' build argument 'cmake_target' from command line to 'None'
[0.615s] Level 5:colcon.colcon_core.verb:set package 'trajectory' build argument 'cmake_target_skip_unavailable' from command line to 'False'
[0.615s] Level 5:colcon.colcon_core.verb:set package 'trajectory' build argument 'cmake_clean_cache' from command line to 'False'
[0.616s] Level 5:colcon.colcon_core.verb:set package 'trajectory' build argument 'cmake_clean_first' from command line to 'False'
[0.616s] Level 5:colcon.colcon_core.verb:set package 'trajectory' build argument 'cmake_force_configure' from command line to 'False'
[0.616s] Level 5:colcon.colcon_core.verb:set package 'trajectory' build argument 'ament_cmake_args' from command line to 'None'
[0.616s] Level 5:colcon.colcon_core.verb:set package 'trajectory' build argument 'catkin_cmake_args' from command line to 'None'
[0.616s] Level 5:colcon.colcon_core.verb:set package 'trajectory' build argument 'catkin_skip_building_tests' from command line to 'False'
[0.616s] DEBUG:colcon.colcon_core.verb:Building package 'trajectory' with the following arguments: {'ament_cmake_args': None, 'build_base': '/home/alberto/ros2_ws/build/trajectory', 'catkin_cmake_args': None, 'catkin_skip_building_tests': False, 'cmake_args': None, 'cmake_clean_cache': False, 'cmake_clean_first': False, 'cmake_force_configure': False, 'cmake_target': None, 'cmake_target_skip_unavailable': False, 'install_base': '/home/alberto/ros2_ws/install/trajectory', 'merge_install': False, 'path': '/home/alberto/ros2_ws/src/trajectory', 'symlink_install': False, 'test_result_base': None}
[0.618s] Level 5:colcon.colcon_core.verb:set package 'ur5_description' build argument 'cmake_args' from command line to 'None'
[0.618s] Level 5:colcon.colcon_core.verb:set package 'ur5_description' build argument 'cmake_target' from command line to 'None'
[0.618s] Level 5:colcon.colcon_core.verb:set package 'ur5_description' build argument 'cmake_target_skip_unavailable' from command line to 'False'
[0.618s] Level 5:colcon.colcon_core.verb:set package 'ur5_description' build argument 'cmake_clean_cache' from command line to 'False'
[0.618s] Level 5:colcon.colcon_core.verb:set package 'ur5_description' build argument 'cmake_clean_first' from command line to 'False'
[0.618s] Level 5:colcon.colcon_core.verb:set package 'ur5_description' build argument 'cmake_force_configure' from command line to 'False'
[0.618s] Level 5:colcon.colcon_core.verb:set package 'ur5_description' build argument 'ament_cmake_args' from command line to 'None'
[0.618s] Level 5:colcon.colcon_core.verb:set package 'ur5_description' build argument 'catkin_cmake_args' from command line to 'None'
[0.618s] Level 5:colcon.colcon_core.verb:set package 'ur5_description' build argument 'catkin_skip_building_tests' from command line to 'False'
[0.618s] DEBUG:colcon.colcon_core.verb:Building package 'ur5_description' with the following arguments: {'ament_cmake_args': None, 'build_base': '/home/alberto/ros2_ws/build/ur5_description', 'catkin_cmake_args': None, 'catkin_skip_building_tests': False, 'cmake_args': None, 'cmake_clean_cache': False, 'cmake_clean_first': False, 'cmake_force_configure': False, 'cmake_target': None, 'cmake_target_skip_unavailable': False, 'install_base': '/home/alberto/ros2_ws/install/ur5_description', 'merge_install': False, 'path': '/home/alberto/ros2_ws/src/ur5_description', 'symlink_install': False, 'test_result_base': None}
[0.620s] Level 5:colcon.colcon_core.verb:set package 'xacro' build argument 'cmake_args' from command line to 'None'
[0.620s] Level 5:colcon.colcon_core.verb:set package 'xacro' build argument 'cmake_target' from command line to 'None'
[0.620s] Level 5:colcon.colcon_core.verb:set package 'xacro' build argument 'cmake_target_skip_unavailable' from command line to 'False'
[0.620s] Level 5:colcon.colcon_core.verb:set package 'xacro' build argument 'cmake_clean_cache' from command line to 'False'
[0.620s] Level 5:colcon.colcon_core.verb:set package 'xacro' build argument 'cmake_clean_first' from command line to 'False'
[0.620s] Level 5:colcon.colcon_core.verb:set package 'xacro' build argument 'cmake_force_configure' from command line to 'False'
[0.620s] Level 5:colcon.colcon_core.verb:set package 'xacro' build argument 'ament_cmake_args' from command line to 'None'
[0.620s] Level 5:colcon.colcon_core.verb:set package 'xacro' build argument 'catkin_cmake_args' from command line to 'None'
[0.620s] Level 5:colcon.colcon_core.verb:set package 'xacro' build argument 'catkin_skip_building_tests' from command line to 'False'
[0.620s] DEBUG:colcon.colcon_core.verb:Building package 'xacro' with the following arguments: {'ament_cmake_args': None, 'build_base': '/home/alberto/ros2_ws/build/xacro', 'catkin_cmake_args': None, 'catkin_skip_building_tests': False, 'cmake_args': None, 'cmake_clean_cache': False, 'cmake_clean_first': False, 'cmake_force_configure': False, 'cmake_target': None, 'cmake_target_skip_unavailable': False, 'install_base': '/home/alberto/ros2_ws/install/xacro', 'merge_install': False, 'path': '/home/alberto/ros2_ws/src/xacro-ros2', 'symlink_install': False, 'test_result_base': None}
[0.622s] Level 5:colcon.colcon_core.verb:set package 'trac_ik_examples' build argument 'cmake_args' from command line to 'None'
[0.622s] Level 5:colcon.colcon_core.verb:set package 'trac_ik_examples' build argument 'cmake_target' from command line to 'None'
[0.622s] Level 5:colcon.colcon_core.verb:set package 'trac_ik_examples' build argument 'cmake_target_skip_unavailable' from command line to 'False'
[0.622s] Level 5:colcon.colcon_core.verb:set package 'trac_ik_examples' build argument 'cmake_clean_cache' from command line to 'False'
[0.622s] Level 5:colcon.colcon_core.verb:set package 'trac_ik_examples' build argument 'cmake_clean_first' from command line to 'False'
[0.622s] Level 5:colcon.colcon_core.verb:set package 'trac_ik_examples' build argument 'cmake_force_configure' from command line to 'False'
[0.622s] Level 5:colcon.colcon_core.verb:set package 'trac_ik_examples' build argument 'ament_cmake_args' from command line to 'None'
[0.622s] Level 5:colcon.colcon_core.verb:set package 'trac_ik_examples' build argument 'catkin_cmake_args' from command line to 'None'
[0.622s] Level 5:colcon.colcon_core.verb:set package 'trac_ik_examples' build argument 'catkin_skip_building_tests' from command line to 'False'
[0.622s] DEBUG:colcon.colcon_core.verb:Building package 'trac_ik_examples' with the following arguments: {'ament_cmake_args': None, 'build_base': '/home/alberto/ros2_ws/build/trac_ik_examples', 'catkin_cmake_args': None, 'catkin_skip_building_tests': False, 'cmake_args': None, 'cmake_clean_cache': False, 'cmake_clean_first': False, 'cmake_force_configure': False, 'cmake_target': None, 'cmake_target_skip_unavailable': False, 'install_base': '/home/alberto/ros2_ws/install/trac_ik_examples', 'merge_install': False, 'path': '/home/alberto/ros2_ws/src/trac_ik/trac_ik_examples', 'symlink_install': False, 'test_result_base': None}
[0.624s] Level 5:colcon.colcon_core.verb:set package 'trac_ik' build argument 'cmake_args' from command line to 'None'
[0.624s] Level 5:colcon.colcon_core.verb:set package 'trac_ik' build argument 'cmake_target' from command line to 'None'
[0.624s] Level 5:colcon.colcon_core.verb:set package 'trac_ik' build argument 'cmake_target_skip_unavailable' from command line to 'False'
[0.624s] Level 5:colcon.colcon_core.verb:set package 'trac_ik' build argument 'cmake_clean_cache' from command line to 'False'
[0.624s] Level 5:colcon.colcon_core.verb:set package 'trac_ik' build argument 'cmake_clean_first' from command line to 'False'
[0.624s] Level 5:colcon.colcon_core.verb:set package 'trac_ik' build argument 'cmake_force_configure' from command line to 'False'
[0.624s] Level 5:colcon.colcon_core.verb:set package 'trac_ik' build argument 'ament_cmake_args' from command line to 'None'
[0.624s] Level 5:colcon.colcon_core.verb:set package 'trac_ik' build argument 'catkin_cmake_args' from command line to 'None'
[0.624s] Level 5:colcon.colcon_core.verb:set package 'trac_ik' build argument 'catkin_skip_building_tests' from command line to 'False'
[0.624s] DEBUG:colcon.colcon_core.verb:Building package 'trac_ik' with the following arguments: {'ament_cmake_args': None, 'build_base': '/home/alberto/ros2_ws/build/trac_ik', 'catkin_cmake_args': None, 'catkin_skip_building_tests': False, 'cmake_args': None, 'cmake_clean_cache': False, 'cmake_clean_first': False, 'cmake_force_configure': False, 'cmake_target': None, 'cmake_target_skip_unavailable': False, 'install_base': '/home/alberto/ros2_ws/install/trac_ik', 'merge_install': False, 'path': '/home/alberto/ros2_ws/src/trac_ik/trac_ik', 'symlink_install': False, 'test_result_base': None}
[0.626s] INFO:colcon.colcon_core.executor:Executing jobs using 'parallel' executor
[0.636s] DEBUG:colcon.colcon_parallel_executor.executor.parallel:run_until_complete
[0.636s] INFO:colcon.colcon_ros.task.ament_cmake.build:Building ROS package in '/home/alberto/ros2_ws/src/trac_ik/trac_ik_lib' with build type 'ament_cmake'
[0.636s] INFO:colcon.colcon_cmake.task.cmake.build:Building CMake package in '/home/alberto/ros2_ws/src/trac_ik/trac_ik_lib'
[0.650s] INFO:colcon.colcon_core.plugin_system:Skipping extension 'colcon_core.shell.bat': Not used on non-Windows systems
[0.652s] INFO:colcon.colcon_core.shell:Skip shell extension 'powershell' for command environment: Not usable outside of PowerShell
[0.652s] DEBUG:colcon.colcon_core.shell:Skip shell extension 'dsv' for command environment
[0.668s] INFO:colcon.colcon_ros.task.ament_cmake.build:Building ROS package in '/home/alberto/ros2_ws/src/kinematic' with build type 'ament_cmake'
[0.668s] INFO:colcon.colcon_cmake.task.cmake.build:Building CMake package in '/home/alberto/ros2_ws/src/kinematic'
[0.672s] INFO:colcon.colcon_core.shell:Skip shell extension 'powershell' for command environment: Not usable outside of PowerShell
[0.672s] DEBUG:colcon.colcon_core.shell:Skip shell extension 'dsv' for command environment
[0.685s] INFO:colcon.colcon_ros.task.ament_cmake.build:Building ROS package in '/home/alberto/ros2_ws/src/rvc_bringup' with build type 'ament_cmake'
[0.686s] INFO:colcon.colcon_cmake.task.cmake.build:Building CMake package in '/home/alberto/ros2_ws/src/rvc_bringup'
[0.689s] INFO:colcon.colcon_core.shell:Skip shell extension 'powershell' for command environment: Not usable outside of PowerShell
[0.689s] DEBUG:colcon.colcon_core.shell:Skip shell extension 'dsv' for command environment
[0.706s] INFO:colcon.colcon_ros.task.ament_python.build:Building ROS package in '/home/alberto/ros2_ws/src/sphere_trajectory' with build type 'ament_python'
[0.707s] Level 1:colcon.colcon_core.shell:create_environment_hook('sphere_trajectory', 'ament_prefix_path')
[0.710s] INFO:colcon.colcon_core.shell:Creating environment hook '/home/alberto/ros2_ws/install/sphere_trajectory/share/sphere_trajectory/hook/ament_prefix_path.ps1'
[0.713s] INFO:colcon.colcon_core.shell:Creating environment descriptor '/home/alberto/ros2_ws/install/sphere_trajectory/share/sphere_trajectory/hook/ament_prefix_path.dsv'
[0.714s] INFO:colcon.colcon_core.shell:Creating environment hook '/home/alberto/ros2_ws/install/sphere_trajectory/share/sphere_trajectory/hook/ament_prefix_path.sh'
[0.719s] INFO:colcon.colcon_core.shell:Skip shell extension 'powershell' for command environment: Not usable outside of PowerShell
[0.719s] DEBUG:colcon.colcon_core.shell:Skip shell extension 'dsv' for command environment
[0.743s] DEBUG:colcon.colcon_core.event_handler.log_command:Invoking command in '/home/alberto/ros2_ws/build/trac_ik_lib': CMAKE_PREFIX_PATH=${CMAKE_PREFIX_PATH}:/home/alberto/ros2_ws/install/trajectory:/home/alberto/ros2_ws/install/sphere_trajectory:/opt/ros/foxy /usr/bin/cmake --build /home/alberto/ros2_ws/build/trac_ik_lib -- -j4 -l4
[0.758s] DEBUG:colcon.colcon_core.event_handler.log_command:Invoking command in '/home/alberto/ros2_ws/build/kinematic': CMAKE_PREFIX_PATH=${CMAKE_PREFIX_PATH}:/home/alberto/ros2_ws/install/trajectory:/home/alberto/ros2_ws/install/sphere_trajectory:/opt/ros/foxy /usr/bin/cmake --build /home/alberto/ros2_ws/build/kinematic -- -j4 -l4
[0.768s] DEBUG:colcon.colcon_core.event_handler.log_command:Invoking command in '/home/alberto/ros2_ws/build/rvc_bringup': CMAKE_PREFIX_PATH=${CMAKE_PREFIX_PATH}:/home/alberto/ros2_ws/install/trajectory:/home/alberto/ros2_ws/install/sphere_trajectory:/opt/ros/foxy /usr/bin/cmake --build /home/alberto/ros2_ws/build/rvc_bringup -- -j4 -l4
[1.329s] INFO:colcon.colcon_core.task.python.build:Building Python package in '/home/alberto/ros2_ws/src/sphere_trajectory'
[1.334s] INFO:colcon.colcon_core.shell:Skip shell extension 'powershell' for command environment: Not usable outside of PowerShell
[1.334s] DEBUG:colcon.colcon_core.shell:Skip shell extension 'dsv' for command environment
[1.356s] DEBUG:colcon.colcon_core.event_handler.log_command:Invoked command in '/home/alberto/ros2_ws/build/trac_ik_lib' returned '0': CMAKE_PREFIX_PATH=${CMAKE_PREFIX_PATH}:/home/alberto/ros2_ws/install/trajectory:/home/alberto/ros2_ws/install/sphere_trajectory:/opt/ros/foxy /usr/bin/cmake --build /home/alberto/ros2_ws/build/trac_ik_lib -- -j4 -l4
[1.362s] DEBUG:colcon.colcon_core.event_handler.log_command:Invoked command in '/home/alberto/ros2_ws/build/kinematic' returned '0': CMAKE_PREFIX_PATH=${CMAKE_PREFIX_PATH}:/home/alberto/ros2_ws/install/trajectory:/home/alberto/ros2_ws/install/sphere_trajectory:/opt/ros/foxy /usr/bin/cmake --build /home/alberto/ros2_ws/build/kinematic -- -j4 -l4
[1.375s] DEBUG:colcon.colcon_core.event_handler.log_command:Invoked command in '/home/alberto/ros2_ws/build/rvc_bringup' returned '0': CMAKE_PREFIX_PATH=${CMAKE_PREFIX_PATH}:/home/alberto/ros2_ws/install/trajectory:/home/alberto/ros2_ws/install/sphere_trajectory:/opt/ros/foxy /usr/bin/cmake --build /home/alberto/ros2_ws/build/rvc_bringup -- -j4 -l4
[1.472s] DEBUG:colcon.colcon_core.event_handler.log_command:Invoking command in '/home/alberto/ros2_ws/build/rvc_bringup': CMAKE_PREFIX_PATH=${CMAKE_PREFIX_PATH}:/home/alberto/ros2_ws/install/trajectory:/home/alberto/ros2_ws/install/sphere_trajectory:/opt/ros/foxy /usr/bin/cmake --install /home/alberto/ros2_ws/build/rvc_bringup
[1.481s] DEBUG:colcon.colcon_core.event_handler.log_command:Invoking command in '/home/alberto/ros2_ws/build/trac_ik_lib': CMAKE_PREFIX_PATH=${CMAKE_PREFIX_PATH}:/home/alberto/ros2_ws/install/trajectory:/home/alberto/ros2_ws/install/sphere_trajectory:/opt/ros/foxy /usr/bin/cmake --install /home/alberto/ros2_ws/build/trac_ik_lib
[1.502s] DEBUG:colcon.colcon_core.event_handler.log_command:Invoking command in '/home/alberto/ros2_ws/build/kinematic': CMAKE_PREFIX_PATH=${CMAKE_PREFIX_PATH}:/home/alberto/ros2_ws/install/trajectory:/home/alberto/ros2_ws/install/sphere_trajectory:/opt/ros/foxy /usr/bin/cmake --install /home/alberto/ros2_ws/build/kinematic
[1.516s] Level 1:colcon.colcon_core.environment:create_environment_scripts_only(rvc_bringup)
[1.521s] DEBUG:colcon.colcon_core.event_handler.log_command:Invoked command in '/home/alberto/ros2_ws/build/rvc_bringup' returned '0': CMAKE_PREFIX_PATH=${CMAKE_PREFIX_PATH}:/home/alberto/ros2_ws/install/trajectory:/home/alberto/ros2_ws/install/sphere_trajectory:/opt/ros/foxy /usr/bin/cmake --install /home/alberto/ros2_ws/build/rvc_bringup
[1.534s] Level 1:colcon.colcon_core.environment:checking '/home/alberto/ros2_ws/install/rvc_bringup' for CMake module files
[1.535s] Level 1:colcon.colcon_core.environment:checking '/home/alberto/ros2_ws/install/rvc_bringup' for CMake config files
[1.536s] Level 1:colcon.colcon_core.shell:create_environment_hook('rvc_bringup', 'cmake_prefix_path')
[1.539s] INFO:colcon.colcon_core.shell:Creating environment hook '/home/alberto/ros2_ws/install/rvc_bringup/share/rvc_bringup/hook/cmake_prefix_path.ps1'
[1.540s] INFO:colcon.colcon_core.shell:Creating environment descriptor '/home/alberto/ros2_ws/install/rvc_bringup/share/rvc_bringup/hook/cmake_prefix_path.dsv'
[1.541s] INFO:colcon.colcon_core.shell:Creating environment hook '/home/alberto/ros2_ws/install/rvc_bringup/share/rvc_bringup/hook/cmake_prefix_path.sh'
[1.543s] Level 1:colcon.colcon_core.environment:checking '/home/alberto/ros2_ws/install/rvc_bringup/bin'
[1.543s] Level 1:colcon.colcon_core.environment:checking '/home/alberto/ros2_ws/install/rvc_bringup/lib/pkgconfig/rvc_bringup.pc'
[1.544s] Level 1:colcon.colcon_core.environment:checking '/home/alberto/ros2_ws/install/rvc_bringup/lib/python3.8/site-packages'
[1.544s] Level 1:colcon.colcon_core.environment:checking '/home/alberto/ros2_ws/install/rvc_bringup/bin'
[1.548s] INFO:colcon.colcon_core.shell:Creating package script '/home/alberto/ros2_ws/install/rvc_bringup/share/rvc_bringup/package.ps1'
[1.550s] INFO:colcon.colcon_core.shell:Creating package descriptor '/home/alberto/ros2_ws/install/rvc_bringup/share/rvc_bringup/package.dsv'
[1.551s] INFO:colcon.colcon_core.shell:Creating package script '/home/alberto/ros2_ws/install/rvc_bringup/share/rvc_bringup/package.sh'
[1.552s] INFO:colcon.colcon_core.shell:Creating package script '/home/alberto/ros2_ws/install/rvc_bringup/share/rvc_bringup/package.bash'
[1.553s] INFO:colcon.colcon_core.shell:Creating package script '/home/alberto/ros2_ws/install/rvc_bringup/share/rvc_bringup/package.zsh'
[1.554s] Level 1:colcon.colcon_core.environment:create_file_with_runtime_dependencies(/home/alberto/ros2_ws/install/rvc_bringup/share/colcon-core/packages/rvc_bringup)
[1.564s] Level 1:colcon.colcon_core.environment:create_environment_scripts_only(kinematic)
[1.571s] Level 1:colcon.colcon_core.environment:checking '/home/alberto/ros2_ws/install/kinematic' for CMake module files
[1.572s] DEBUG:colcon.colcon_core.event_handler.log_command:Invoked command in '/home/alberto/ros2_ws/build/kinematic' returned '0': CMAKE_PREFIX_PATH=${CMAKE_PREFIX_PATH}:/home/alberto/ros2_ws/install/trajectory:/home/alberto/ros2_ws/install/sphere_trajectory:/opt/ros/foxy /usr/bin/cmake --install /home/alberto/ros2_ws/build/kinematic
[1.573s] Level 1:colcon.colcon_core.environment:checking '/home/alberto/ros2_ws/install/kinematic' for CMake config files
[1.574s] Level 1:colcon.colcon_core.shell:create_environment_hook('kinematic', 'cmake_prefix_path')
[1.579s] INFO:colcon.colcon_core.shell:Creating environment hook '/home/alberto/ros2_ws/install/kinematic/share/kinematic/hook/cmake_prefix_path.ps1'
[1.580s] INFO:colcon.colcon_core.shell:Creating environment descriptor '/home/alberto/ros2_ws/install/kinematic/share/kinematic/hook/cmake_prefix_path.dsv'
[1.581s] INFO:colcon.colcon_core.shell:Creating environment hook '/home/alberto/ros2_ws/install/kinematic/share/kinematic/hook/cmake_prefix_path.sh'
[1.583s] Level 1:colcon.colcon_core.environment:checking '/home/alberto/ros2_ws/install/kinematic/lib'
[1.583s] Level 1:colcon.colcon_core.environment:checking '/home/alberto/ros2_ws/install/kinematic/bin'
[1.583s] Level 1:colcon.colcon_core.environment:checking '/home/alberto/ros2_ws/install/kinematic/lib/pkgconfig/kinematic.pc'
[1.584s] Level 1:colcon.colcon_core.environment:checking '/home/alberto/ros2_ws/install/kinematic/lib/python3.8/site-packages'
[1.584s] Level 1:colcon.colcon_core.environment:checking '/home/alberto/ros2_ws/install/kinematic/bin'
[1.588s] INFO:colcon.colcon_core.shell:Creating package script '/home/alberto/ros2_ws/install/kinematic/share/kinematic/package.ps1'
[1.590s] INFO:colcon.colcon_core.shell:Creating package descriptor '/home/alberto/ros2_ws/install/kinematic/share/kinematic/package.dsv'
[1.590s] INFO:colcon.colcon_core.shell:Creating package script '/home/alberto/ros2_ws/install/kinematic/share/kinematic/package.sh'
[1.591s] INFO:colcon.colcon_core.shell:Creating package script '/home/alberto/ros2_ws/install/kinematic/share/kinematic/package.bash'
[1.592s] INFO:colcon.colcon_core.shell:Creating package script '/home/alberto/ros2_ws/install/kinematic/share/kinematic/package.zsh'
[1.592s] Level 1:colcon.colcon_core.environment:create_file_with_runtime_dependencies(/home/alberto/ros2_ws/install/kinematic/share/colcon-core/packages/kinematic)
[1.599s] Level 1:colcon.colcon_core.environment:create_environment_scripts_only(trac_ik_lib)
[1.600s] DEBUG:colcon.colcon_core.event_handler.log_command:Invoked command in '/home/alberto/ros2_ws/build/trac_ik_lib' returned '0': CMAKE_PREFIX_PATH=${CMAKE_PREFIX_PATH}:/home/alberto/ros2_ws/install/trajectory:/home/alberto/ros2_ws/install/sphere_trajectory:/opt/ros/foxy /usr/bin/cmake --install /home/alberto/ros2_ws/build/trac_ik_lib
[1.607s] Level 1:colcon.colcon_core.environment:checking '/home/alberto/ros2_ws/install/trac_ik_lib' for CMake module files
[1.609s] Level 1:colcon.colcon_core.environment:checking '/home/alberto/ros2_ws/install/trac_ik_lib' for CMake config files
[1.609s] Level 1:colcon.colcon_core.shell:create_environment_hook('trac_ik_lib', 'cmake_prefix_path')
[1.613s] INFO:colcon.colcon_core.shell:Creating environment hook '/home/alberto/ros2_ws/install/trac_ik_lib/share/trac_ik_lib/hook/cmake_prefix_path.ps1'
[1.614s] INFO:colcon.colcon_core.shell:Creating environment descriptor '/home/alberto/ros2_ws/install/trac_ik_lib/share/trac_ik_lib/hook/cmake_prefix_path.dsv'
[1.615s] INFO:colcon.colcon_core.shell:Creating environment hook '/home/alberto/ros2_ws/install/trac_ik_lib/share/trac_ik_lib/hook/cmake_prefix_path.sh'
[1.616s] Level 1:colcon.colcon_core.environment:checking '/home/alberto/ros2_ws/install/trac_ik_lib/lib'
[1.616s] Level 1:colcon.colcon_core.shell:create_environment_hook('trac_ik_lib', 'ld_library_path_lib')
[1.621s] INFO:colcon.colcon_core.shell:Creating environment hook '/home/alberto/ros2_ws/install/trac_ik_lib/share/trac_ik_lib/hook/ld_library_path_lib.ps1'
[1.621s] INFO:colcon.colcon_core.shell:Creating environment descriptor '/home/alberto/ros2_ws/install/trac_ik_lib/share/trac_ik_lib/hook/ld_library_path_lib.dsv'
[1.622s] INFO:colcon.colcon_core.shell:Creating environment hook '/home/alberto/ros2_ws/install/trac_ik_lib/share/trac_ik_lib/hook/ld_library_path_lib.sh'
[1.623s] Level 1:colcon.colcon_core.environment:checking '/home/alberto/ros2_ws/install/trac_ik_lib/bin'
[1.623s] Level 1:colcon.colcon_core.environment:checking '/home/alberto/ros2_ws/install/trac_ik_lib/lib/pkgconfig/trac_ik_lib.pc'
[1.624s] Level 1:colcon.colcon_core.environment:checking '/home/alberto/ros2_ws/install/trac_ik_lib/lib/python3.8/site-packages'
[1.624s] Level 1:colcon.colcon_core.environment:checking '/home/alberto/ros2_ws/install/trac_ik_lib/bin'
[1.631s] INFO:colcon.colcon_core.shell:Creating package script '/home/alberto/ros2_ws/install/trac_ik_lib/share/trac_ik_lib/package.ps1'
[1.632s] INFO:colcon.colcon_core.shell:Creating package descriptor '/home/alberto/ros2_ws/install/trac_ik_lib/share/trac_ik_lib/package.dsv'
[1.633s] INFO:colcon.colcon_core.shell:Creating package script '/home/alberto/ros2_ws/install/trac_ik_lib/share/trac_ik_lib/package.sh'
[1.635s] INFO:colcon.colcon_core.shell:Creating package script '/home/alberto/ros2_ws/install/trac_ik_lib/share/trac_ik_lib/package.bash'
[1.636s] INFO:colcon.colcon_core.shell:Creating package script '/home/alberto/ros2_ws/install/trac_ik_lib/share/trac_ik_lib/package.zsh'
[1.636s] Level 1:colcon.colcon_core.environment:create_file_with_runtime_dependencies(/home/alberto/ros2_ws/install/trac_ik_lib/share/colcon-core/packages/trac_ik_lib)
[1.647s] Level 1:colcon.colcon_core.environment:create_environment_scripts_only(rvc_bringup)
[1.653s] Level 1:colcon.colcon_core.environment:checking '/home/alberto/ros2_ws/install/rvc_bringup' for CMake module files
[1.654s] Level 1:colcon.colcon_core.environment:checking '/home/alberto/ros2_ws/install/rvc_bringup' for CMake config files
[1.655s] Level 1:colcon.colcon_core.shell:create_environment_hook('rvc_bringup', 'cmake_prefix_path')
[1.659s] INFO:colcon.colcon_core.shell:Creating environment hook '/home/alberto/ros2_ws/install/rvc_bringup/share/rvc_bringup/hook/cmake_prefix_path.ps1'
[1.660s] INFO:colcon.colcon_core.shell:Creating environment descriptor '/home/alberto/ros2_ws/install/rvc_bringup/share/rvc_bringup/hook/cmake_prefix_path.dsv'
[1.661s] INFO:colcon.colcon_core.shell:Creating environment hook '/home/alberto/ros2_ws/install/rvc_bringup/share/rvc_bringup/hook/cmake_prefix_path.sh'
[1.662s] Level 1:colcon.colcon_core.environment:checking '/home/alberto/ros2_ws/install/rvc_bringup/bin'
[1.663s] Level 1:colcon.colcon_core.environment:checking '/home/alberto/ros2_ws/install/rvc_bringup/lib/pkgconfig/rvc_bringup.pc'
[1.663s] Level 1:colcon.colcon_core.environment:checking '/home/alberto/ros2_ws/install/rvc_bringup/lib/python3.8/site-packages'
[1.663s] Level 1:colcon.colcon_core.environment:checking '/home/alberto/ros2_ws/install/rvc_bringup/bin'
[1.667s] INFO:colcon.colcon_core.shell:Creating package script '/home/alberto/ros2_ws/install/rvc_bringup/share/rvc_bringup/package.ps1'
[1.668s] INFO:colcon.colcon_core.shell:Creating package descriptor '/home/alberto/ros2_ws/install/rvc_bringup/share/rvc_bringup/package.dsv'
[1.669s] INFO:colcon.colcon_core.shell:Creating package script '/home/alberto/ros2_ws/install/rvc_bringup/share/rvc_bringup/package.sh'
[1.670s] INFO:colcon.colcon_core.shell:Creating package script '/home/alberto/ros2_ws/install/rvc_bringup/share/rvc_bringup/package.bash'
[1.671s] INFO:colcon.colcon_core.shell:Creating package script '/home/alberto/ros2_ws/install/rvc_bringup/share/rvc_bringup/package.zsh'
[1.672s] Level 1:colcon.colcon_core.environment:create_file_with_runtime_dependencies(/home/alberto/ros2_ws/install/rvc_bringup/share/colcon-core/packages/rvc_bringup)
[1.673s] INFO:colcon.colcon_ros.task.ament_python.build:Building ROS package in '/home/alberto/ros2_ws/src/trajectory' with build type 'ament_python'
[1.673s] Level 1:colcon.colcon_core.shell:create_environment_hook('trajectory', 'ament_prefix_path')
[1.676s] INFO:colcon.colcon_core.shell:Creating environment hook '/home/alberto/ros2_ws/install/trajectory/share/trajectory/hook/ament_prefix_path.ps1'
[1.678s] INFO:colcon.colcon_core.shell:Creating environment descriptor '/home/alberto/ros2_ws/install/trajectory/share/trajectory/hook/ament_prefix_path.dsv'
[1.681s] INFO:colcon.colcon_core.shell:Creating environment hook '/home/alberto/ros2_ws/install/trajectory/share/trajectory/hook/ament_prefix_path.sh'
[1.685s] INFO:colcon.colcon_core.shell:Skip shell extension 'powershell' for command environment: Not usable outside of PowerShell
[1.685s] DEBUG:colcon.colcon_core.shell:Skip shell extension 'dsv' for command environment
[1.707s] Level 1:colcon.colcon_core.environment:create_environment_scripts_only(kinematic)
[1.713s] Level 1:colcon.colcon_core.environment:checking '/home/alberto/ros2_ws/install/kinematic' for CMake module files
[1.715s] Level 1:colcon.colcon_core.environment:checking '/home/alberto/ros2_ws/install/kinematic' for CMake config files
[1.716s] Level 1:colcon.colcon_core.shell:create_environment_hook('kinematic', 'cmake_prefix_path')
[1.718s] INFO:colcon.colcon_core.shell:Creating environment hook '/home/alberto/ros2_ws/install/kinematic/share/kinematic/hook/cmake_prefix_path.ps1'
[1.719s] INFO:colcon.colcon_core.shell:Creating environment descriptor '/home/alberto/ros2_ws/install/kinematic/share/kinematic/hook/cmake_prefix_path.dsv'
[1.719s] INFO:colcon.colcon_core.shell:Creating environment hook '/home/alberto/ros2_ws/install/kinematic/share/kinematic/hook/cmake_prefix_path.sh'
[1.720s] Level 1:colcon.colcon_core.environment:checking '/home/alberto/ros2_ws/install/kinematic/lib'
[1.720s] Level 1:colcon.colcon_core.environment:checking '/home/alberto/ros2_ws/install/kinematic/bin'
[1.720s] Level 1:colcon.colcon_core.environment:checking '/home/alberto/ros2_ws/install/kinematic/lib/pkgconfig/kinematic.pc'
[1.721s] Level 1:colcon.colcon_core.environment:checking '/home/alberto/ros2_ws/install/kinematic/lib/python3.8/site-packages'
[1.721s] Level 1:colcon.colcon_core.environment:checking '/home/alberto/ros2_ws/install/kinematic/bin'
[1.723s] INFO:colcon.colcon_core.shell:Creating package script '/home/alberto/ros2_ws/install/kinematic/share/kinematic/package.ps1'
[1.724s] INFO:colcon.colcon_core.shell:Creating package descriptor '/home/alberto/ros2_ws/install/kinematic/share/kinematic/package.dsv'
[1.725s] INFO:colcon.colcon_core.shell:Creating package script '/home/alberto/ros2_ws/install/kinematic/share/kinematic/package.sh'
[1.726s] INFO:colcon.colcon_core.shell:Creating package script '/home/alberto/ros2_ws/install/kinematic/share/kinematic/package.bash'
[1.726s] INFO:colcon.colcon_core.shell:Creating package script '/home/alberto/ros2_ws/install/kinematic/share/kinematic/package.zsh'
[1.727s] Level 1:colcon.colcon_core.environment:create_file_with_runtime_dependencies(/home/alberto/ros2_ws/install/kinematic/share/colcon-core/packages/kinematic)
[1.729s] INFO:colcon.colcon_ros.task.ament_cmake.build:Building ROS package in '/home/alberto/ros2_ws/src/ur5_description' with build type 'ament_cmake'
[1.730s] INFO:colcon.colcon_cmake.task.cmake.build:Building CMake package in '/home/alberto/ros2_ws/src/ur5_description'
[1.734s] INFO:colcon.colcon_core.shell:Skip shell extension 'powershell' for command environment: Not usable outside of PowerShell
[1.734s] DEBUG:colcon.colcon_core.shell:Skip shell extension 'dsv' for command environment
[1.752s] Level 1:colcon.colcon_core.environment:create_environment_scripts_only(trac_ik_lib)
[1.757s] Level 1:colcon.colcon_core.environment:checking '/home/alberto/ros2_ws/install/trac_ik_lib' for CMake module files
[1.758s] Level 1:colcon.colcon_core.environment:checking '/home/alberto/ros2_ws/install/trac_ik_lib' for CMake config files
[1.759s] Level 1:colcon.colcon_core.shell:create_environment_hook('trac_ik_lib', 'cmake_prefix_path')
[1.763s] INFO:colcon.colcon_core.shell:Creating environment hook '/home/alberto/ros2_ws/install/trac_ik_lib/share/trac_ik_lib/hook/cmake_prefix_path.ps1'
[1.764s] INFO:colcon.colcon_core.shell:Creating environment descriptor '/home/alberto/ros2_ws/install/trac_ik_lib/share/trac_ik_lib/hook/cmake_prefix_path.dsv'
[1.764s] INFO:colcon.colcon_core.shell:Creating environment hook '/home/alberto/ros2_ws/install/trac_ik_lib/share/trac_ik_lib/hook/cmake_prefix_path.sh'
[1.765s] Level 1:colcon.colcon_core.environment:checking '/home/alberto/ros2_ws/install/trac_ik_lib/lib'
[1.765s] Level 1:colcon.colcon_core.shell:create_environment_hook('trac_ik_lib', 'ld_library_path_lib')
[1.769s] INFO:colcon.colcon_core.shell:Creating environment hook '/home/alberto/ros2_ws/install/trac_ik_lib/share/trac_ik_lib/hook/ld_library_path_lib.ps1'
[1.770s] INFO:colcon.colcon_core.shell:Creating environment descriptor '/home/alberto/ros2_ws/install/trac_ik_lib/share/trac_ik_lib/hook/ld_library_path_lib.dsv'
[1.770s] INFO:colcon.colcon_core.shell:Creating environment hook '/home/alberto/ros2_ws/install/trac_ik_lib/share/trac_ik_lib/hook/ld_library_path_lib.sh'
[1.770s] Level 1:colcon.colcon_core.environment:checking '/home/alberto/ros2_ws/install/trac_ik_lib/bin'
[1.771s] Level 1:colcon.colcon_core.environment:checking '/home/alberto/ros2_ws/install/trac_ik_lib/lib/pkgconfig/trac_ik_lib.pc'
[1.771s] Level 1:colcon.colcon_core.environment:checking '/home/alberto/ros2_ws/install/trac_ik_lib/lib/python3.8/site-packages'
[1.771s] Level 1:colcon.colcon_core.environment:checking '/home/alberto/ros2_ws/install/trac_ik_lib/bin'
[1.774s] INFO:colcon.colcon_core.shell:Creating package script '/home/alberto/ros2_ws/install/trac_ik_lib/share/trac_ik_lib/package.ps1'
[1.774s] INFO:colcon.colcon_core.shell:Creating package descriptor '/home/alberto/ros2_ws/install/trac_ik_lib/share/trac_ik_lib/package.dsv'
[1.775s] INFO:colcon.colcon_core.shell:Creating package script '/home/alberto/ros2_ws/install/trac_ik_lib/share/trac_ik_lib/package.sh'
[1.776s] INFO:colcon.colcon_core.shell:Creating package script '/home/alberto/ros2_ws/install/trac_ik_lib/share/trac_ik_lib/package.bash'
[1.776s] INFO:colcon.colcon_core.shell:Creating package script '/home/alberto/ros2_ws/install/trac_ik_lib/share/trac_ik_lib/package.zsh'
[1.777s] Level 1:colcon.colcon_core.environment:create_file_with_runtime_dependencies(/home/alberto/ros2_ws/install/trac_ik_lib/share/colcon-core/packages/trac_ik_lib)
[2.261s] INFO:colcon.colcon_core.task.python.build:Building Python package in '/home/alberto/ros2_ws/src/trajectory'
[2.266s] INFO:colcon.colcon_core.shell:Skip shell extension 'powershell' for command environment: Not usable outside of PowerShell
[2.267s] DEBUG:colcon.colcon_core.shell:Skip shell extension 'dsv' for command environment
[2.280s] INFO:colcon.colcon_ros.task.ament_cmake.build:Building ROS package in '/home/alberto/ros2_ws/src/trac_ik/trac_ik_examples' with build type 'ament_cmake'
[2.281s] INFO:colcon.colcon_cmake.task.cmake.build:Building CMake package in '/home/alberto/ros2_ws/src/trac_ik/trac_ik_examples'
[2.284s] INFO:colcon.colcon_core.shell:Skip shell extension 'powershell' for command environment: Not usable outside of PowerShell
[2.284s] DEBUG:colcon.colcon_core.shell:Skip shell extension 'dsv' for command environment
[2.310s] DEBUG:colcon.colcon_core.event_handler.log_command:Invoking command in '/home/alberto/ros2_ws/build/ur5_description': CMAKE_PREFIX_PATH=${CMAKE_PREFIX_PATH}:/home/alberto/ros2_ws/install/trajectory:/home/alberto/ros2_ws/install/sphere_trajectory:/opt/ros/foxy /usr/bin/cmake --build /home/alberto/ros2_ws/build/ur5_description -- -j4 -l4
[2.319s] DEBUG:colcon.colcon_core.event_handler.log_command:Invoking command in '/home/alberto/ros2_ws/src/sphere_trajectory': PYTHONPATH=/home/alberto/ros2_ws/install/sphere_trajectory/lib/python3.8/site-packages:${PYTHONPATH} /usr/bin/python3 setup.py egg_info --egg-base ../../build/sphere_trajectory build --build-base /home/alberto/ros2_ws/build/sphere_trajectory/build install --prefix /home/alberto/ros2_ws/install/sphere_trajectory --record /home/alberto/ros2_ws/build/sphere_trajectory/install.log --single-version-externally-managed
[2.350s] DEBUG:colcon.colcon_core.event_handler.log_command:Invoking command in '/home/alberto/ros2_ws/build/trac_ik_examples': CMAKE_PREFIX_PATH=/home/alberto/ros2_ws/install/trac_ik_lib:/home/alberto/ros2_ws/install/xacro:/home/alberto/ros2_ws/install/ur5_description:/home/alberto/ros2_ws/install/trac_ik:/home/alberto/ros2_ws/install/trac_ik_examples:/home/alberto/ros2_ws/install/rvc_bringup:/home/alberto/ros2_ws/install/kinematic:/home/alberto/ros2_ws/install/trajectory:/home/alberto/ros2_ws/install/sphere_trajectory:/opt/ros/foxy /usr/bin/cmake --build /home/alberto/ros2_ws/build/trac_ik_examples -- -j4 -l4
[2.440s] DEBUG:colcon.colcon_core.event_handler.log_command:Invoked command in '/home/alberto/ros2_ws/build/ur5_description' returned '0': CMAKE_PREFIX_PATH=${CMAKE_PREFIX_PATH}:/home/alberto/ros2_ws/install/trajectory:/home/alberto/ros2_ws/install/sphere_trajectory:/opt/ros/foxy /usr/bin/cmake --build /home/alberto/ros2_ws/build/ur5_description -- -j4 -l4
[2.508s] DEBUG:colcon.colcon_core.event_handler.log_command:Invoking command in '/home/alberto/ros2_ws/build/ur5_description': CMAKE_PREFIX_PATH=${CMAKE_PREFIX_PATH}:/home/alberto/ros2_ws/install/trajectory:/home/alberto/ros2_ws/install/sphere_trajectory:/opt/ros/foxy /usr/bin/cmake --install /home/alberto/ros2_ws/build/ur5_description
[2.549s] DEBUG:colcon.colcon_core.event_handler.log_command:Invoked command in '/home/alberto/ros2_ws/build/trac_ik_examples' returned '0': CMAKE_PREFIX_PATH=/home/alberto/ros2_ws/install/trac_ik_lib:/home/alberto/ros2_ws/install/xacro:/home/alberto/ros2_ws/install/ur5_description:/home/alberto/ros2_ws/install/trac_ik:/home/alberto/ros2_ws/install/trac_ik_examples:/home/alberto/ros2_ws/install/rvc_bringup:/home/alberto/ros2_ws/install/kinematic:/home/alberto/ros2_ws/install/trajectory:/home/alberto/ros2_ws/install/sphere_trajectory:/opt/ros/foxy /usr/bin/cmake --build /home/alberto/ros2_ws/build/trac_ik_examples -- -j4 -l4
[2.567s] Level 1:colcon.colcon_core.environment:create_environment_scripts_only(ur5_description)
[2.575s] Level 1:colcon.colcon_core.environment:checking '/home/alberto/ros2_ws/install/ur5_description' for CMake module files
[2.575s] DEBUG:colcon.colcon_core.event_handler.log_command:Invoked command in '/home/alberto/ros2_ws/build/ur5_description' returned '0': CMAKE_PREFIX_PATH=${CMAKE_PREFIX_PATH}:/home/alberto/ros2_ws/install/trajectory:/home/alberto/ros2_ws/install/sphere_trajectory:/opt/ros/foxy /usr/bin/cmake --install /home/alberto/ros2_ws/build/ur5_description
[2.577s] Level 1:colcon.colcon_core.environment:checking '/home/alberto/ros2_ws/install/ur5_description' for CMake config files
[2.578s] Level 1:colcon.colcon_core.shell:create_environment_hook('ur5_description', 'cmake_prefix_path')
[2.582s] INFO:colcon.colcon_core.shell:Creating environment hook '/home/alberto/ros2_ws/install/ur5_description/share/ur5_description/hook/cmake_prefix_path.ps1'
[2.583s] INFO:colcon.colcon_core.shell:Creating environment descriptor '/home/alberto/ros2_ws/install/ur5_description/share/ur5_description/hook/cmake_prefix_path.dsv'
[2.583s] INFO:colcon.colcon_core.shell:Creating environment hook '/home/alberto/ros2_ws/install/ur5_description/share/ur5_description/hook/cmake_prefix_path.sh'
[2.584s] Level 1:colcon.colcon_core.environment:checking '/home/alberto/ros2_ws/install/ur5_description/bin'
[2.584s] Level 1:colcon.colcon_core.environment:checking '/home/alberto/ros2_ws/install/ur5_description/lib/pkgconfig/ur5_description.pc'
[2.585s] Level 1:colcon.colcon_core.environment:checking '/home/alberto/ros2_ws/install/ur5_description/lib/python3.8/site-packages'
[2.585s] Level 1:colcon.colcon_core.environment:checking '/home/alberto/ros2_ws/install/ur5_description/bin'
[2.589s] INFO:colcon.colcon_core.shell:Creating package script '/home/alberto/ros2_ws/install/ur5_description/share/ur5_description/package.ps1'
[2.590s] INFO:colcon.colcon_core.shell:Creating package descriptor '/home/alberto/ros2_ws/install/ur5_description/share/ur5_description/package.dsv'
[2.591s] INFO:colcon.colcon_core.shell:Creating package script '/home/alberto/ros2_ws/install/ur5_description/share/ur5_description/package.sh'
[2.592s] INFO:colcon.colcon_core.shell:Creating package script '/home/alberto/ros2_ws/install/ur5_description/share/ur5_description/package.bash'
[2.592s] INFO:colcon.colcon_core.shell:Creating package script '/home/alberto/ros2_ws/install/ur5_description/share/ur5_description/package.zsh'
[2.593s] Level 1:colcon.colcon_core.environment:create_file_with_runtime_dependencies(/home/alberto/ros2_ws/install/ur5_description/share/colcon-core/packages/ur5_description)
[2.620s] DEBUG:colcon.colcon_core.event_handler.log_command:Invoking command in '/home/alberto/ros2_ws/build/trac_ik_examples': CMAKE_PREFIX_PATH=/home/alberto/ros2_ws/install/trac_ik_lib:/home/alberto/ros2_ws/install/xacro:/home/alberto/ros2_ws/install/ur5_description:/home/alberto/ros2_ws/install/trac_ik:/home/alberto/ros2_ws/install/trac_ik_examples:/home/alberto/ros2_ws/install/rvc_bringup:/home/alberto/ros2_ws/install/kinematic:/home/alberto/ros2_ws/install/trajectory:/home/alberto/ros2_ws/install/sphere_trajectory:/opt/ros/foxy /usr/bin/cmake --install /home/alberto/ros2_ws/build/trac_ik_examples
[2.657s] Level 1:colcon.colcon_core.environment:create_environment_scripts_only(trac_ik_examples)
[2.668s] Level 1:colcon.colcon_core.environment:checking '/home/alberto/ros2_ws/install/trac_ik_examples' for CMake module files
[2.670s] DEBUG:colcon.colcon_core.event_handler.log_command:Invoked command in '/home/alberto/ros2_ws/build/trac_ik_examples' returned '0': CMAKE_PREFIX_PATH=/home/alberto/ros2_ws/install/trac_ik_lib:/home/alberto/ros2_ws/install/xacro:/home/alberto/ros2_ws/install/ur5_description:/home/alberto/ros2_ws/install/trac_ik:/home/alberto/ros2_ws/install/trac_ik_examples:/home/alberto/ros2_ws/install/rvc_bringup:/home/alberto/ros2_ws/install/kinematic:/home/alberto/ros2_ws/install/trajectory:/home/alberto/ros2_ws/install/sphere_trajectory:/opt/ros/foxy /usr/bin/cmake --install /home/alberto/ros2_ws/build/trac_ik_examples
[2.671s] Level 1:colcon.colcon_core.environment:checking '/home/alberto/ros2_ws/install/trac_ik_examples' for CMake config files
[2.671s] Level 1:colcon.colcon_core.shell:create_environment_hook('trac_ik_examples', 'cmake_prefix_path')
[2.674s] INFO:colcon.colcon_core.shell:Creating environment hook '/home/alberto/ros2_ws/install/trac_ik_examples/share/trac_ik_examples/hook/cmake_prefix_path.ps1'
[2.675s] INFO:colcon.colcon_core.shell:Creating environment descriptor '/home/alberto/ros2_ws/install/trac_ik_examples/share/trac_ik_examples/hook/cmake_prefix_path.dsv'
[2.675s] INFO:colcon.colcon_core.shell:Creating environment hook '/home/alberto/ros2_ws/install/trac_ik_examples/share/trac_ik_examples/hook/cmake_prefix_path.sh'
[2.676s] Level 1:colcon.colcon_core.environment:checking '/home/alberto/ros2_ws/install/trac_ik_examples/lib'
[2.676s] Level 1:colcon.colcon_core.environment:checking '/home/alberto/ros2_ws/install/trac_ik_examples/bin'
[2.676s] Level 1:colcon.colcon_core.environment:checking '/home/alberto/ros2_ws/install/trac_ik_examples/lib/pkgconfig/trac_ik_examples.pc'
[2.676s] Level 1:colcon.colcon_core.environment:checking '/home/alberto/ros2_ws/install/trac_ik_examples/lib/python3.8/site-packages'
[2.677s] Level 1:colcon.colcon_core.environment:checking '/home/alberto/ros2_ws/install/trac_ik_examples/bin'
[2.680s] INFO:colcon.colcon_core.shell:Creating package script '/home/alberto/ros2_ws/install/trac_ik_examples/share/trac_ik_examples/package.ps1'
[2.681s] INFO:colcon.colcon_core.shell:Creating package descriptor '/home/alberto/ros2_ws/install/trac_ik_examples/share/trac_ik_examples/package.dsv'
[2.682s] INFO:colcon.colcon_core.shell:Creating package script '/home/alberto/ros2_ws/install/trac_ik_examples/share/trac_ik_examples/package.sh'
[2.682s] INFO:colcon.colcon_core.shell:Creating package script '/home/alberto/ros2_ws/install/trac_ik_examples/share/trac_ik_examples/package.bash'
[2.683s] INFO:colcon.colcon_core.shell:Creating package script '/home/alberto/ros2_ws/install/trac_ik_examples/share/trac_ik_examples/package.zsh'
[2.684s] Level 1:colcon.colcon_core.environment:create_file_with_runtime_dependencies(/home/alberto/ros2_ws/install/trac_ik_examples/share/colcon-core/packages/trac_ik_examples)
[2.703s] Level 1:colcon.colcon_core.environment:create_environment_scripts_only(ur5_description)
[2.709s] Level 1:colcon.colcon_core.environment:checking '/home/alberto/ros2_ws/install/ur5_description' for CMake module files
[2.711s] Level 1:colcon.colcon_core.environment:checking '/home/alberto/ros2_ws/install/ur5_description' for CMake config files
[2.711s] Level 1:colcon.colcon_core.shell:create_environment_hook('ur5_description', 'cmake_prefix_path')
[2.716s] INFO:colcon.colcon_core.shell:Creating environment hook '/home/alberto/ros2_ws/install/ur5_description/share/ur5_description/hook/cmake_prefix_path.ps1'
[2.717s] INFO:colcon.colcon_core.shell:Creating environment descriptor '/home/alberto/ros2_ws/install/ur5_description/share/ur5_description/hook/cmake_prefix_path.dsv'
[2.717s] INFO:colcon.colcon_core.shell:Creating environment hook '/home/alberto/ros2_ws/install/ur5_description/share/ur5_description/hook/cmake_prefix_path.sh'
[2.719s] Level 1:colcon.colcon_core.environment:checking '/home/alberto/ros2_ws/install/ur5_description/bin'
[2.719s] Level 1:colcon.colcon_core.environment:checking '/home/alberto/ros2_ws/install/ur5_description/lib/pkgconfig/ur5_description.pc'
[2.719s] Level 1:colcon.colcon_core.environment:checking '/home/alberto/ros2_ws/install/ur5_description/lib/python3.8/site-packages'
[2.720s] Level 1:colcon.colcon_core.environment:checking '/home/alberto/ros2_ws/install/ur5_description/bin'
[2.725s] INFO:colcon.colcon_core.shell:Creating package script '/home/alberto/ros2_ws/install/ur5_description/share/ur5_description/package.ps1'
[2.726s] INFO:colcon.colcon_core.shell:Creating package descriptor '/home/alberto/ros2_ws/install/ur5_description/share/ur5_description/package.dsv'
[2.727s] INFO:colcon.colcon_core.shell:Creating package script '/home/alberto/ros2_ws/install/ur5_description/share/ur5_description/package.sh'
[2.732s] INFO:colcon.colcon_core.shell:Creating package script '/home/alberto/ros2_ws/install/ur5_description/share/ur5_description/package.bash'
[2.733s] INFO:colcon.colcon_core.shell:Creating package script '/home/alberto/ros2_ws/install/ur5_description/share/ur5_description/package.zsh'
[2.734s] Level 1:colcon.colcon_core.environment:create_file_with_runtime_dependencies(/home/alberto/ros2_ws/install/ur5_description/share/colcon-core/packages/ur5_description)
[2.736s] INFO:colcon.colcon_ros.task.ament_cmake.build:Building ROS package in '/home/alberto/ros2_ws/src/xacro-ros2' with build type 'ament_cmake'
[2.737s] INFO:colcon.colcon_cmake.task.cmake.build:Building CMake package in '/home/alberto/ros2_ws/src/xacro-ros2'
[2.741s] INFO:colcon.colcon_core.shell:Skip shell extension 'powershell' for command environment: Not usable outside of PowerShell
[2.741s] DEBUG:colcon.colcon_core.shell:Skip shell extension 'dsv' for command environment
[2.781s] Level 1:colcon.colcon_core.environment:create_environment_scripts_only(trac_ik_examples)
[2.789s] Level 1:colcon.colcon_core.environment:checking '/home/alberto/ros2_ws/install/trac_ik_examples' for CMake module files
[2.790s] Level 1:colcon.colcon_core.environment:checking '/home/alberto/ros2_ws/install/trac_ik_examples' for CMake config files
[2.791s] Level 1:colcon.colcon_core.shell:create_environment_hook('trac_ik_examples', 'cmake_prefix_path')
[2.795s] INFO:colcon.colcon_core.shell:Creating environment hook '/home/alberto/ros2_ws/install/trac_ik_examples/share/trac_ik_examples/hook/cmake_prefix_path.ps1'
[2.796s] INFO:colcon.colcon_core.shell:Creating environment descriptor '/home/alberto/ros2_ws/install/trac_ik_examples/share/trac_ik_examples/hook/cmake_prefix_path.dsv'
[2.797s] INFO:colcon.colcon_core.shell:Creating environment hook '/home/alberto/ros2_ws/install/trac_ik_examples/share/trac_ik_examples/hook/cmake_prefix_path.sh'
[2.798s] Level 1:colcon.colcon_core.environment:checking '/home/alberto/ros2_ws/install/trac_ik_examples/lib'
[2.798s] Level 1:colcon.colcon_core.environment:checking '/home/alberto/ros2_ws/install/trac_ik_examples/bin'
[2.799s] Level 1:colcon.colcon_core.environment:checking '/home/alberto/ros2_ws/install/trac_ik_examples/lib/pkgconfig/trac_ik_examples.pc'
[2.800s] Level 1:colcon.colcon_core.environment:checking '/home/alberto/ros2_ws/install/trac_ik_examples/lib/python3.8/site-packages'
[2.800s] Level 1:colcon.colcon_core.environment:checking '/home/alberto/ros2_ws/install/trac_ik_examples/bin'
[2.805s] INFO:colcon.colcon_core.shell:Creating package script '/home/alberto/ros2_ws/install/trac_ik_examples/share/trac_ik_examples/package.ps1'
[2.806s] INFO:colcon.colcon_core.shell:Creating package descriptor '/home/alberto/ros2_ws/install/trac_ik_examples/share/trac_ik_examples/package.dsv'
[2.807s] INFO:colcon.colcon_core.shell:Creating package script '/home/alberto/ros2_ws/install/trac_ik_examples/share/trac_ik_examples/package.sh'
[2.808s] INFO:colcon.colcon_core.shell:Creating package script '/home/alberto/ros2_ws/install/trac_ik_examples/share/trac_ik_examples/package.bash'
[2.809s] INFO:colcon.colcon_core.shell:Creating package script '/home/alberto/ros2_ws/install/trac_ik_examples/share/trac_ik_examples/package.zsh'
[2.809s] Level 1:colcon.colcon_core.environment:create_file_with_runtime_dependencies(/home/alberto/ros2_ws/install/trac_ik_examples/share/colcon-core/packages/trac_ik_examples)
[2.812s] INFO:colcon.colcon_ros.task.ament_cmake.build:Building ROS package in '/home/alberto/ros2_ws/src/trac_ik/trac_ik' with build type 'ament_cmake'
[2.812s] INFO:colcon.colcon_cmake.task.cmake.build:Building CMake package in '/home/alberto/ros2_ws/src/trac_ik/trac_ik'
[2.816s] INFO:colcon.colcon_core.shell:Skip shell extension 'powershell' for command environment: Not usable outside of PowerShell
[2.816s] DEBUG:colcon.colcon_core.shell:Skip shell extension 'dsv' for command environment
[2.847s] DEBUG:colcon.colcon_core.event_handler.log_command:Invoking command in '/home/alberto/ros2_ws/build/xacro': CMAKE_PREFIX_PATH=${CMAKE_PREFIX_PATH}:/home/alberto/ros2_ws/install/trajectory:/home/alberto/ros2_ws/install/sphere_trajectory:/opt/ros/foxy /usr/bin/cmake --build /home/alberto/ros2_ws/build/xacro -- -j4 -l4
[2.873s] DEBUG:colcon.colcon_core.event_handler.log_command:Invoking command in '/home/alberto/ros2_ws/build/trac_ik': CMAKE_PREFIX_PATH=/home/alberto/ros2_ws/install/trac_ik_examples:/home/alberto/ros2_ws/install/trac_ik_lib:/home/alberto/ros2_ws/install/xacro:/home/alberto/ros2_ws/install/ur5_description:/home/alberto/ros2_ws/install/trac_ik:/home/alberto/ros2_ws/install/rvc_bringup:/home/alberto/ros2_ws/install/kinematic:/home/alberto/ros2_ws/install/trajectory:/home/alberto/ros2_ws/install/sphere_trajectory:/opt/ros/foxy /usr/bin/cmake --build /home/alberto/ros2_ws/build/trac_ik -- -j4 -l4
[3.016s] DEBUG:colcon.colcon_core.event_handler.log_command:Invoked command in '/home/alberto/ros2_ws/build/trac_ik' returned '0': CMAKE_PREFIX_PATH=/home/alberto/ros2_ws/install/trac_ik_examples:/home/alberto/ros2_ws/install/trac_ik_lib:/home/alberto/ros2_ws/install/xacro:/home/alberto/ros2_ws/install/ur5_description:/home/alberto/ros2_ws/install/trac_ik:/home/alberto/ros2_ws/install/rvc_bringup:/home/alberto/ros2_ws/install/kinematic:/home/alberto/ros2_ws/install/trajectory:/home/alberto/ros2_ws/install/sphere_trajectory:/opt/ros/foxy /usr/bin/cmake --build /home/alberto/ros2_ws/build/trac_ik -- -j4 -l4
[3.087s] DEBUG:colcon.colcon_core.event_handler.log_command:Invoking command in '/home/alberto/ros2_ws/build/trac_ik': CMAKE_PREFIX_PATH=/home/alberto/ros2_ws/install/trac_ik_examples:/home/alberto/ros2_ws/install/trac_ik_lib:/home/alberto/ros2_ws/install/xacro:/home/alberto/ros2_ws/install/ur5_description:/home/alberto/ros2_ws/install/trac_ik:/home/alberto/ros2_ws/install/rvc_bringup:/home/alberto/ros2_ws/install/kinematic:/home/alberto/ros2_ws/install/trajectory:/home/alberto/ros2_ws/install/sphere_trajectory:/opt/ros/foxy /usr/bin/cmake --install /home/alberto/ros2_ws/build/trac_ik
[3.120s] Level 1:colcon.colcon_core.environment:create_environment_scripts_only(trac_ik)
[3.127s] DEBUG:colcon.colcon_core.event_handler.log_command:Invoked command in '/home/alberto/ros2_ws/build/trac_ik' returned '0': CMAKE_PREFIX_PATH=/home/alberto/ros2_ws/install/trac_ik_examples:/home/alberto/ros2_ws/install/trac_ik_lib:/home/alberto/ros2_ws/install/xacro:/home/alberto/ros2_ws/install/ur5_description:/home/alberto/ros2_ws/install/trac_ik:/home/alberto/ros2_ws/install/rvc_bringup:/home/alberto/ros2_ws/install/kinematic:/home/alberto/ros2_ws/install/trajectory:/home/alberto/ros2_ws/install/sphere_trajectory:/opt/ros/foxy /usr/bin/cmake --install /home/alberto/ros2_ws/build/trac_ik
[3.128s] Level 1:colcon.colcon_core.environment:checking '/home/alberto/ros2_ws/install/trac_ik' for CMake module files
[3.129s] Level 1:colcon.colcon_core.environment:checking '/home/alberto/ros2_ws/install/trac_ik' for CMake config files
[3.129s] Level 1:colcon.colcon_core.shell:create_environment_hook('trac_ik', 'cmake_prefix_path')
[3.134s] INFO:colcon.colcon_core.shell:Creating environment hook '/home/alberto/ros2_ws/install/trac_ik/share/trac_ik/hook/cmake_prefix_path.ps1'
[3.136s] INFO:colcon.colcon_core.shell:Creating environment descriptor '/home/alberto/ros2_ws/install/trac_ik/share/trac_ik/hook/cmake_prefix_path.dsv'
[3.137s] INFO:colcon.colcon_core.shell:Creating environment hook '/home/alberto/ros2_ws/install/trac_ik/share/trac_ik/hook/cmake_prefix_path.sh'
[3.138s] Level 1:colcon.colcon_core.environment:checking '/home/alberto/ros2_ws/install/trac_ik/bin'
[3.138s] Level 1:colcon.colcon_core.environment:checking '/home/alberto/ros2_ws/install/trac_ik/lib/pkgconfig/trac_ik.pc'
[3.139s] Level 1:colcon.colcon_core.environment:checking '/home/alberto/ros2_ws/install/trac_ik/lib/python3.8/site-packages'
[3.139s] Level 1:colcon.colcon_core.environment:checking '/home/alberto/ros2_ws/install/trac_ik/bin'
[3.144s] INFO:colcon.colcon_core.shell:Creating package script '/home/alberto/ros2_ws/install/trac_ik/share/trac_ik/package.ps1'
[3.145s] INFO:colcon.colcon_core.shell:Creating package descriptor '/home/alberto/ros2_ws/install/trac_ik/share/trac_ik/package.dsv'
[3.146s] INFO:colcon.colcon_core.shell:Creating package script '/home/alberto/ros2_ws/install/trac_ik/share/trac_ik/package.sh'
[3.147s] INFO:colcon.colcon_core.shell:Creating package script '/home/alberto/ros2_ws/install/trac_ik/share/trac_ik/package.bash'
[3.147s] INFO:colcon.colcon_core.shell:Creating package script '/home/alberto/ros2_ws/install/trac_ik/share/trac_ik/package.zsh'
[3.148s] Level 1:colcon.colcon_core.environment:create_file_with_runtime_dependencies(/home/alberto/ros2_ws/install/trac_ik/share/colcon-core/packages/trac_ik)
[3.168s] DEBUG:colcon.colcon_core.event_handler.log_command:Invoked command in '/home/alberto/ros2_ws/src/sphere_trajectory' returned '0': PYTHONPATH=/home/alberto/ros2_ws/install/sphere_trajectory/lib/python3.8/site-packages:${PYTHONPATH} /usr/bin/python3 setup.py egg_info --egg-base ../../build/sphere_trajectory build --build-base /home/alberto/ros2_ws/build/sphere_trajectory/build install --prefix /home/alberto/ros2_ws/install/sphere_trajectory --record /home/alberto/ros2_ws/build/sphere_trajectory/install.log --single-version-externally-managed
[3.171s] Level 1:colcon.colcon_core.environment:checking '/home/alberto/ros2_ws/install/sphere_trajectory' for CMake module files
[3.172s] Level 1:colcon.colcon_core.environment:checking '/home/alberto/ros2_ws/install/sphere_trajectory' for CMake config files
[3.173s] Level 1:colcon.colcon_core.environment:checking '/home/alberto/ros2_ws/install/sphere_trajectory/lib'
[3.173s] Level 1:colcon.colcon_core.environment:checking '/home/alberto/ros2_ws/install/sphere_trajectory/bin'
[3.174s] Level 1:colcon.colcon_core.environment:checking '/home/alberto/ros2_ws/install/sphere_trajectory/lib/pkgconfig/sphere_trajectory.pc'
[3.174s] Level 1:colcon.colcon_core.environment:checking '/home/alberto/ros2_ws/install/sphere_trajectory/lib/python3.8/site-packages'
[3.174s] Level 1:colcon.colcon_core.shell:create_environment_hook('sphere_trajectory', 'pythonpath')
[3.178s] INFO:colcon.colcon_core.shell:Creating environment hook '/home/alberto/ros2_ws/install/sphere_trajectory/share/sphere_trajectory/hook/pythonpath.ps1'
[3.180s] INFO:colcon.colcon_core.shell:Creating environment descriptor '/home/alberto/ros2_ws/install/sphere_trajectory/share/sphere_trajectory/hook/pythonpath.dsv'
[3.180s] INFO:colcon.colcon_core.shell:Creating environment hook '/home/alberto/ros2_ws/install/sphere_trajectory/share/sphere_trajectory/hook/pythonpath.sh'
[3.181s] Level 1:colcon.colcon_core.environment:checking '/home/alberto/ros2_ws/install/sphere_trajectory/bin'
[3.182s] Level 1:colcon.colcon_core.environment:create_environment_scripts_only(sphere_trajectory)
[3.186s] INFO:colcon.colcon_core.shell:Creating package script '/home/alberto/ros2_ws/install/sphere_trajectory/share/sphere_trajectory/package.ps1'
[3.187s] INFO:colcon.colcon_core.shell:Creating package descriptor '/home/alberto/ros2_ws/install/sphere_trajectory/share/sphere_trajectory/package.dsv'
[3.188s] INFO:colcon.colcon_core.shell:Creating package script '/home/alberto/ros2_ws/install/sphere_trajectory/share/sphere_trajectory/package.sh'
[3.189s] INFO:colcon.colcon_core.shell:Creating package script '/home/alberto/ros2_ws/install/sphere_trajectory/share/sphere_trajectory/package.bash'
[3.190s] INFO:colcon.colcon_core.shell:Creating package script '/home/alberto/ros2_ws/install/sphere_trajectory/share/sphere_trajectory/package.zsh'
[3.191s] Level 1:colcon.colcon_core.environment:create_file_with_runtime_dependencies(/home/alberto/ros2_ws/install/sphere_trajectory/share/colcon-core/packages/sphere_trajectory)
[3.223s] Level 1:colcon.colcon_core.environment:create_environment_scripts_only(trac_ik)
[3.229s] Level 1:colcon.colcon_core.environment:checking '/home/alberto/ros2_ws/install/trac_ik' for CMake module files
[3.233s] Level 1:colcon.colcon_core.environment:checking '/home/alberto/ros2_ws/install/trac_ik' for CMake config files
[3.234s] Level 1:colcon.colcon_core.shell:create_environment_hook('trac_ik', 'cmake_prefix_path')
[3.238s] INFO:colcon.colcon_core.shell:Creating environment hook '/home/alberto/ros2_ws/install/trac_ik/share/trac_ik/hook/cmake_prefix_path.ps1'
[3.239s] INFO:colcon.colcon_core.shell:Creating environment descriptor '/home/alberto/ros2_ws/install/trac_ik/share/trac_ik/hook/cmake_prefix_path.dsv'
[3.240s] INFO:colcon.colcon_core.shell:Creating environment hook '/home/alberto/ros2_ws/install/trac_ik/share/trac_ik/hook/cmake_prefix_path.sh'
[3.241s] Level 1:colcon.colcon_core.environment:checking '/home/alberto/ros2_ws/install/trac_ik/bin'
[3.241s] Level 1:colcon.colcon_core.environment:checking '/home/alberto/ros2_ws/install/trac_ik/lib/pkgconfig/trac_ik.pc'
[3.241s] Level 1:colcon.colcon_core.environment:checking '/home/alberto/ros2_ws/install/trac_ik/lib/python3.8/site-packages'
[3.242s] Level 1:colcon.colcon_core.environment:checking '/home/alberto/ros2_ws/install/trac_ik/bin'
[3.246s] INFO:colcon.colcon_core.shell:Creating package script '/home/alberto/ros2_ws/install/trac_ik/share/trac_ik/package.ps1'
[3.248s] INFO:colcon.colcon_core.shell:Creating package descriptor '/home/alberto/ros2_ws/install/trac_ik/share/trac_ik/package.dsv'
[3.249s] INFO:colcon.colcon_core.shell:Creating package script '/home/alberto/ros2_ws/install/trac_ik/share/trac_ik/package.sh'
[3.250s] INFO:colcon.colcon_core.shell:Creating package script '/home/alberto/ros2_ws/install/trac_ik/share/trac_ik/package.bash'
[3.251s] INFO:colcon.colcon_core.shell:Creating package script '/home/alberto/ros2_ws/install/trac_ik/share/trac_ik/package.zsh'
[3.252s] Level 1:colcon.colcon_core.environment:create_file_with_runtime_dependencies(/home/alberto/ros2_ws/install/trac_ik/share/colcon-core/packages/trac_ik)
[3.397s] DEBUG:colcon.colcon_core.event_handler.log_command:Invoking command in '/home/alberto/ros2_ws/src/trajectory': PYTHONPATH=/home/alberto/ros2_ws/install/trajectory/lib/python3.8/site-packages:${PYTHONPATH} /usr/bin/python3 setup.py egg_info --egg-base ../../build/trajectory build --build-base /home/alberto/ros2_ws/build/trajectory/build install --prefix /home/alberto/ros2_ws/install/trajectory --record /home/alberto/ros2_ws/build/trajectory/install.log --single-version-externally-managed
[3.652s] DEBUG:colcon.colcon_core.event_handler.log_command:Invoked command in '/home/alberto/ros2_ws/build/xacro' returned '0': CMAKE_PREFIX_PATH=${CMAKE_PREFIX_PATH}:/home/alberto/ros2_ws/install/trajectory:/home/alberto/ros2_ws/install/sphere_trajectory:/opt/ros/foxy /usr/bin/cmake --build /home/alberto/ros2_ws/build/xacro -- -j4 -l4
[3.691s] DEBUG:colcon.colcon_core.event_handler.log_command:Invoking command in '/home/alberto/ros2_ws/build/xacro': CMAKE_PREFIX_PATH=${CMAKE_PREFIX_PATH}:/home/alberto/ros2_ws/install/trajectory:/home/alberto/ros2_ws/install/sphere_trajectory:/opt/ros/foxy /usr/bin/cmake --install /home/alberto/ros2_ws/build/xacro
[3.771s] Level 1:colcon.colcon_core.environment:create_environment_scripts_only(xacro)
[3.775s] Level 1:colcon.colcon_core.environment:checking '/home/alberto/ros2_ws/install/xacro' for CMake module files
[3.777s] Level 1:colcon.colcon_core.environment:checking '/home/alberto/ros2_ws/install/xacro' for CMake config files
[3.778s] Level 1:colcon.colcon_core.shell:create_environment_hook('xacro', 'cmake_prefix_path')
[3.781s] INFO:colcon.colcon_core.shell:Creating environment hook '/home/alberto/ros2_ws/install/xacro/share/xacro/hook/cmake_prefix_path.ps1'
[3.782s] DEBUG:colcon.colcon_core.event_handler.log_command:Invoked command in '/home/alberto/ros2_ws/build/xacro' returned '0': CMAKE_PREFIX_PATH=${CMAKE_PREFIX_PATH}:/home/alberto/ros2_ws/install/trajectory:/home/alberto/ros2_ws/install/sphere_trajectory:/opt/ros/foxy /usr/bin/cmake --install /home/alberto/ros2_ws/build/xacro
[3.783s] INFO:colcon.colcon_core.shell:Creating environment descriptor '/home/alberto/ros2_ws/install/xacro/share/xacro/hook/cmake_prefix_path.dsv'
[3.784s] INFO:colcon.colcon_core.shell:Creating environment hook '/home/alberto/ros2_ws/install/xacro/share/xacro/hook/cmake_prefix_path.sh'
[3.784s] Level 1:colcon.colcon_core.environment:checking '/home/alberto/ros2_ws/install/xacro/lib'
[3.784s] Level 1:colcon.colcon_core.environment:checking '/home/alberto/ros2_ws/install/xacro/bin'
[3.784s] Level 1:colcon.colcon_core.shell:create_environment_hook('xacro', 'path')
[3.788s] INFO:colcon.colcon_core.shell:Creating environment hook '/home/alberto/ros2_ws/install/xacro/share/xacro/hook/path.ps1'
[3.789s] INFO:colcon.colcon_core.shell:Creating environment descriptor '/home/alberto/ros2_ws/install/xacro/share/xacro/hook/path.dsv'
[3.789s] INFO:colcon.colcon_core.shell:Creating environment hook '/home/alberto/ros2_ws/install/xacro/share/xacro/hook/path.sh'
[3.790s] Level 1:colcon.colcon_core.environment:checking '/home/alberto/ros2_ws/install/xacro/lib/pkgconfig/xacro.pc'
[3.790s] Level 1:colcon.colcon_core.environment:checking '/home/alberto/ros2_ws/install/xacro/lib/python3.8/site-packages'
[3.790s] Level 1:colcon.colcon_core.shell:create_environment_hook('xacro', 'pythonpath')
[3.792s] INFO:colcon.colcon_core.shell:Creating environment hook '/home/alberto/ros2_ws/install/xacro/share/xacro/hook/pythonpath.ps1'
[3.793s] INFO:colcon.colcon_core.shell:Creating environment descriptor '/home/alberto/ros2_ws/install/xacro/share/xacro/hook/pythonpath.dsv'
[3.793s] INFO:colcon.colcon_core.shell:Creating environment hook '/home/alberto/ros2_ws/install/xacro/share/xacro/hook/pythonpath.sh'
[3.794s] Level 1:colcon.colcon_core.environment:checking '/home/alberto/ros2_ws/install/xacro/bin'
[3.794s] Level 1:colcon.colcon_core.shell:create_environment_hook('xacro', 'pythonscriptspath')
[3.797s] INFO:colcon.colcon_core.shell:Creating environment hook '/home/alberto/ros2_ws/install/xacro/share/xacro/hook/pythonscriptspath.ps1'
[3.798s] INFO:colcon.colcon_core.shell:Creating environment descriptor '/home/alberto/ros2_ws/install/xacro/share/xacro/hook/pythonscriptspath.dsv'
[3.799s] INFO:colcon.colcon_core.shell:Creating environment hook '/home/alberto/ros2_ws/install/xacro/share/xacro/hook/pythonscriptspath.sh'
[3.802s] INFO:colcon.colcon_core.shell:Creating package script '/home/alberto/ros2_ws/install/xacro/share/xacro/package.ps1'
[3.804s] INFO:colcon.colcon_core.shell:Creating package descriptor '/home/alberto/ros2_ws/install/xacro/share/xacro/package.dsv'
[3.805s] INFO:colcon.colcon_core.shell:Creating package script '/home/alberto/ros2_ws/install/xacro/share/xacro/package.sh'
[3.805s] INFO:colcon.colcon_core.shell:Creating package script '/home/alberto/ros2_ws/install/xacro/share/xacro/package.bash'
[3.806s] INFO:colcon.colcon_core.shell:Creating package script '/home/alberto/ros2_ws/install/xacro/share/xacro/package.zsh'
[3.806s] Level 1:colcon.colcon_core.environment:create_file_with_runtime_dependencies(/home/alberto/ros2_ws/install/xacro/share/colcon-core/packages/xacro)
[3.844s] Level 1:colcon.colcon_core.environment:create_environment_scripts_only(xacro)
[3.849s] Level 1:colcon.colcon_core.environment:checking '/home/alberto/ros2_ws/install/xacro' for CMake module files
[3.850s] Level 1:colcon.colcon_core.environment:checking '/home/alberto/ros2_ws/install/xacro' for CMake config files
[3.851s] Level 1:colcon.colcon_core.shell:create_environment_hook('xacro', 'cmake_prefix_path')
[3.854s] INFO:colcon.colcon_core.shell:Creating environment hook '/home/alberto/ros2_ws/install/xacro/share/xacro/hook/cmake_prefix_path.ps1'
[3.855s] INFO:colcon.colcon_core.shell:Creating environment descriptor '/home/alberto/ros2_ws/install/xacro/share/xacro/hook/cmake_prefix_path.dsv'
[3.855s] INFO:colcon.colcon_core.shell:Creating environment hook '/home/alberto/ros2_ws/install/xacro/share/xacro/hook/cmake_prefix_path.sh'
[3.856s] Level 1:colcon.colcon_core.environment:checking '/home/alberto/ros2_ws/install/xacro/lib'
[3.856s] Level 1:colcon.colcon_core.environment:checking '/home/alberto/ros2_ws/install/xacro/bin'
[3.856s] Level 1:colcon.colcon_core.shell:create_environment_hook('xacro', 'path')
[3.858s] INFO:colcon.colcon_core.shell:Creating environment hook '/home/alberto/ros2_ws/install/xacro/share/xacro/hook/path.ps1'
[3.859s] INFO:colcon.colcon_core.shell:Creating environment descriptor '/home/alberto/ros2_ws/install/xacro/share/xacro/hook/path.dsv'
[3.860s] INFO:colcon.colcon_core.shell:Creating environment hook '/home/alberto/ros2_ws/install/xacro/share/xacro/hook/path.sh'
[3.860s] Level 1:colcon.colcon_core.environment:checking '/home/alberto/ros2_ws/install/xacro/lib/pkgconfig/xacro.pc'
[3.861s] Level 1:colcon.colcon_core.environment:checking '/home/alberto/ros2_ws/install/xacro/lib/python3.8/site-packages'
[3.861s] Level 1:colcon.colcon_core.shell:create_environment_hook('xacro', 'pythonpath')
[3.863s] INFO:colcon.colcon_core.shell:Creating environment hook '/home/alberto/ros2_ws/install/xacro/share/xacro/hook/pythonpath.ps1'
[3.863s] INFO:colcon.colcon_core.shell:Creating environment descriptor '/home/alberto/ros2_ws/install/xacro/share/xacro/hook/pythonpath.dsv'
[3.864s] INFO:colcon.colcon_core.shell:Creating environment hook '/home/alberto/ros2_ws/install/xacro/share/xacro/hook/pythonpath.sh'
[3.865s] Level 1:colcon.colcon_core.environment:checking '/home/alberto/ros2_ws/install/xacro/bin'
[3.866s] Level 1:colcon.colcon_core.shell:create_environment_hook('xacro', 'pythonscriptspath')
[3.869s] INFO:colcon.colcon_core.shell:Creating environment hook '/home/alberto/ros2_ws/install/xacro/share/xacro/hook/pythonscriptspath.ps1'
[3.870s] INFO:colcon.colcon_core.shell:Creating environment descriptor '/home/alberto/ros2_ws/install/xacro/share/xacro/hook/pythonscriptspath.dsv'
[3.870s] INFO:colcon.colcon_core.shell:Creating environment hook '/home/alberto/ros2_ws/install/xacro/share/xacro/hook/pythonscriptspath.sh'
[3.874s] INFO:colcon.colcon_core.shell:Creating package script '/home/alberto/ros2_ws/install/xacro/share/xacro/package.ps1'
[3.875s] INFO:colcon.colcon_core.shell:Creating package descriptor '/home/alberto/ros2_ws/install/xacro/share/xacro/package.dsv'
[3.876s] INFO:colcon.colcon_core.shell:Creating package script '/home/alberto/ros2_ws/install/xacro/share/xacro/package.sh'
[3.877s] INFO:colcon.colcon_core.shell:Creating package script '/home/alberto/ros2_ws/install/xacro/share/xacro/package.bash'
[3.877s] INFO:colcon.colcon_core.shell:Creating package script '/home/alberto/ros2_ws/install/xacro/share/xacro/package.zsh'
[3.878s] Level 1:colcon.colcon_core.environment:create_file_with_runtime_dependencies(/home/alberto/ros2_ws/install/xacro/share/colcon-core/packages/xacro)
[3.976s] Level 1:colcon.colcon_core.environment:checking '/home/alberto/ros2_ws/install/trajectory' for CMake module files
[3.978s] DEBUG:colcon.colcon_core.event_handler.log_command:Invoked command in '/home/alberto/ros2_ws/src/trajectory' returned '0': PYTHONPATH=/home/alberto/ros2_ws/install/trajectory/lib/python3.8/site-packages:${PYTHONPATH} /usr/bin/python3 setup.py egg_info --egg-base ../../build/trajectory build --build-base /home/alberto/ros2_ws/build/trajectory/build install --prefix /home/alberto/ros2_ws/install/trajectory --record /home/alberto/ros2_ws/build/trajectory/install.log --single-version-externally-managed
[3.978s] Level 1:colcon.colcon_core.environment:checking '/home/alberto/ros2_ws/install/trajectory' for CMake config files
[3.979s] Level 1:colcon.colcon_core.environment:checking '/home/alberto/ros2_ws/install/trajectory/lib'
[3.979s] Level 1:colcon.colcon_core.environment:checking '/home/alberto/ros2_ws/install/trajectory/bin'
[3.979s] Level 1:colcon.colcon_core.environment:checking '/home/alberto/ros2_ws/install/trajectory/lib/pkgconfig/trajectory.pc'
[3.980s] Level 1:colcon.colcon_core.environment:checking '/home/alberto/ros2_ws/install/trajectory/lib/python3.8/site-packages'
[3.980s] Level 1:colcon.colcon_core.shell:create_environment_hook('trajectory', 'pythonpath')
[3.984s] INFO:colcon.colcon_core.shell:Creating environment hook '/home/alberto/ros2_ws/install/trajectory/share/trajectory/hook/pythonpath.ps1'
[3.985s] INFO:colcon.colcon_core.shell:Creating environment descriptor '/home/alberto/ros2_ws/install/trajectory/share/trajectory/hook/pythonpath.dsv'
[3.986s] INFO:colcon.colcon_core.shell:Creating environment hook '/home/alberto/ros2_ws/install/trajectory/share/trajectory/hook/pythonpath.sh'
[3.988s] Level 1:colcon.colcon_core.environment:checking '/home/alberto/ros2_ws/install/trajectory/bin'
[3.989s] Level 1:colcon.colcon_core.environment:create_environment_scripts_only(trajectory)
[3.992s] INFO:colcon.colcon_core.shell:Creating package script '/home/alberto/ros2_ws/install/trajectory/share/trajectory/package.ps1'
[3.993s] INFO:colcon.colcon_core.shell:Creating package descriptor '/home/alberto/ros2_ws/install/trajectory/share/trajectory/package.dsv'
[3.994s] INFO:colcon.colcon_core.shell:Creating package script '/home/alberto/ros2_ws/install/trajectory/share/trajectory/package.sh'
[3.994s] INFO:colcon.colcon_core.shell:Creating package script '/home/alberto/ros2_ws/install/trajectory/share/trajectory/package.bash'
[3.995s] INFO:colcon.colcon_core.shell:Creating package script '/home/alberto/ros2_ws/install/trajectory/share/trajectory/package.zsh'
[3.995s] Level 1:colcon.colcon_core.environment:create_file_with_runtime_dependencies(/home/alberto/ros2_ws/install/trajectory/share/colcon-core/packages/trajectory)
[3.995s] DEBUG:colcon.colcon_parallel_executor.executor.parallel:closing loop
[3.996s] DEBUG:colcon.colcon_parallel_executor.executor.parallel:loop closed
[3.996s] DEBUG:colcon.colcon_parallel_executor.executor.parallel:run_until_complete finished with '0'
[3.997s] DEBUG:colcon.colcon_core.event_reactor:joining thread
[4.008s] INFO:colcon.colcon_core.plugin_system:Skipping extension 'colcon_notification.desktop_notification.terminal_notifier': Not used on non-Darwin systems
[4.008s] INFO:colcon.colcon_core.plugin_system:Skipping extension 'colcon_notification.desktop_notification.win32': Not used on non-Windows systems
[4.008s] INFO:colcon.colcon_notification.desktop_notification:Sending desktop notification using 'notify2'
[4.042s] DEBUG:colcon.colcon_core.event_reactor:joined thread
[4.045s] INFO:colcon.colcon_core.shell:Creating prefix script '/home/alberto/ros2_ws/install/local_setup.ps1'
[4.047s] INFO:colcon.colcon_core.shell:Creating prefix util module '/home/alberto/ros2_ws/install/_local_setup_util_ps1.py'
[4.049s] INFO:colcon.colcon_core.shell:Creating prefix chain script '/home/alberto/ros2_ws/install/setup.ps1'
[4.054s] INFO:colcon.colcon_core.shell:Creating prefix script '/home/alberto/ros2_ws/install/local_setup.sh'
[4.054s] INFO:colcon.colcon_core.shell:Creating prefix util module '/home/alberto/ros2_ws/install/_local_setup_util_sh.py'
[4.055s] INFO:colcon.colcon_core.shell:Creating prefix chain script '/home/alberto/ros2_ws/install/setup.sh'
[4.057s] INFO:colcon.colcon_core.shell:Creating prefix script '/home/alberto/ros2_ws/install/local_setup.bash'
[4.058s] INFO:colcon.colcon_core.shell:Creating prefix chain script '/home/alberto/ros2_ws/install/setup.bash'
[4.060s] INFO:colcon.colcon_core.shell:Creating prefix script '/home/alberto/ros2_ws/install/local_setup.zsh'
[4.060s] INFO:colcon.colcon_core.shell:Creating prefix chain script '/home/alberto/ros2_ws/install/setup.zsh'
