[0.446s] Invoking command in '/home/alberto/ros2_ws/build/trac_ik_examples': CMAKE_PREFIX_PATH=/home/alberto/ros2_ws/install/trac_ik_lib:/home/alberto/ros2_ws/install/xacro:/home/alberto/ros2_ws/install/ur5_description:/home/alberto/ros2_ws/install/trac_ik:/home/alberto/ros2_ws/install/trac_ik_examples:/home/alberto/ros2_ws/install/rvc_bringup:/home/alberto/ros2_ws/install/kinematic:/home/alberto/ros2_ws/install/trajectory:/home/alberto/ros2_ws/install/sphere_trajectory:/opt/ros/foxy /usr/bin/cmake --build /home/alberto/ros2_ws/build/trac_ik_examples -- -j4 -l4
[0.591s] [100%] Built target ik_tests
[0.621s] Invoked command in '/home/alberto/ros2_ws/build/trac_ik_examples' returned '0': CMAKE_PREFIX_PATH=/home/alberto/ros2_ws/install/trac_ik_lib:/home/alberto/ros2_ws/install/xacro:/home/alberto/ros2_ws/install/ur5_description:/home/alberto/ros2_ws/install/trac_ik:/home/alberto/ros2_ws/install/trac_ik_examples:/home/alberto/ros2_ws/install/rvc_bringup:/home/alberto/ros2_ws/install/kinematic:/home/alberto/ros2_ws/install/trajectory:/home/alberto/ros2_ws/install/sphere_trajectory:/opt/ros/foxy /usr/bin/cmake --build /home/alberto/ros2_ws/build/trac_ik_examples -- -j4 -l4
[0.684s] Invoking command in '/home/alberto/ros2_ws/build/trac_ik_examples': CMAKE_PREFIX_PATH=/home/alberto/ros2_ws/install/trac_ik_lib:/home/alberto/ros2_ws/install/xacro:/home/alberto/ros2_ws/install/ur5_description:/home/alberto/ros2_ws/install/trac_ik:/home/alberto/ros2_ws/install/trac_ik_examples:/home/alberto/ros2_ws/install/rvc_bringup:/home/alberto/ros2_ws/install/kinematic:/home/alberto/ros2_ws/install/trajectory:/home/alberto/ros2_ws/install/sphere_trajectory:/opt/ros/foxy /usr/bin/cmake --install /home/alberto/ros2_ws/build/trac_ik_examples
[0.709s] -- Install configuration: ""
[0.711s] -- Up-to-date: /home/alberto/ros2_ws/install/trac_ik_examples/lib/trac_ik_examples/ik_tests
[0.712s] -- Up-to-date: /home/alberto/ros2_ws/install/trac_ik_examples/share/trac_ik_examples/launch
[0.712s] -- Up-to-date: /home/alberto/ros2_ws/install/trac_ik_examples/share/trac_ik_examples/launch/pr2_arm.launch.py
[0.713s] -- Up-to-date: /home/alberto/ros2_ws/install/trac_ik_examples/share/trac_ik_examples/launch/pr2.urdf
[0.713s] -- Up-to-date: /home/alberto/ros2_ws/install/trac_ik_examples/share/ament_index/resource_index/package_run_dependencies/trac_ik_examples
[0.714s] -- Up-to-date: /home/alberto/ros2_ws/install/trac_ik_examples/share/ament_index/resource_index/parent_prefix_path/trac_ik_examples
[0.715s] -- Up-to-date: /home/alberto/ros2_ws/install/trac_ik_examples/share/trac_ik_examples/environment/ament_prefix_path.sh
[0.715s] -- Up-to-date: /home/alberto/ros2_ws/install/trac_ik_examples/share/trac_ik_examples/environment/ament_prefix_path.dsv
[0.716s] -- Up-to-date: /home/alberto/ros2_ws/install/trac_ik_examples/share/trac_ik_examples/environment/path.sh
[0.716s] -- Up-to-date: /home/alberto/ros2_ws/install/trac_ik_examples/share/trac_ik_examples/environment/path.dsv
[0.717s] -- Up-to-date: /home/alberto/ros2_ws/install/trac_ik_examples/share/trac_ik_examples/local_setup.bash
[0.718s] -- Up-to-date: /home/alberto/ros2_ws/install/trac_ik_examples/share/trac_ik_examples/local_setup.sh
[0.718s] -- Up-to-date: /home/alberto/ros2_ws/install/trac_ik_examples/share/trac_ik_examples/local_setup.zsh
[0.719s] -- Up-to-date: /home/alberto/ros2_ws/install/trac_ik_examples/share/trac_ik_examples/local_setup.dsv
[0.720s] -- Installing: /home/alberto/ros2_ws/install/trac_ik_examples/share/trac_ik_examples/package.dsv
[0.720s] -- Up-to-date: /home/alberto/ros2_ws/install/trac_ik_examples/share/ament_index/resource_index/packages/trac_ik_examples
[0.721s] -- Up-to-date: /home/alberto/ros2_ws/install/trac_ik_examples/share/trac_ik_examples/cmake/trac_ik_examplesConfig.cmake
[0.721s] -- Up-to-date: /home/alberto/ros2_ws/install/trac_ik_examples/share/trac_ik_examples/cmake/trac_ik_examplesConfig-version.cmake
[0.722s] -- Up-to-date: /home/alberto/ros2_ws/install/trac_ik_examples/share/trac_ik_examples/package.xml
[0.791s] Invoked command in '/home/alberto/ros2_ws/build/trac_ik_examples' returned '0': CMAKE_PREFIX_PATH=/home/alberto/ros2_ws/install/trac_ik_lib:/home/alberto/ros2_ws/install/xacro:/home/alberto/ros2_ws/install/ur5_description:/home/alberto/ros2_ws/install/trac_ik:/home/alberto/ros2_ws/install/trac_ik_examples:/home/alberto/ros2_ws/install/rvc_bringup:/home/alberto/ros2_ws/install/kinematic:/home/alberto/ros2_ws/install/trajectory:/home/alberto/ros2_ws/install/sphere_trajectory:/opt/ros/foxy /usr/bin/cmake --install /home/alberto/ros2_ws/build/trac_ik_examples
