running egg_info
writing ../../build/trajectory/trajectory.egg-info/PKG-INFO
writing dependency_links to ../../build/trajectory/trajectory.egg-info/dependency_links.txt
writing entry points to ../../build/trajectory/trajectory.egg-info/entry_points.txt
writing requirements to ../../build/trajectory/trajectory.egg-info/requires.txt
writing top-level names to ../../build/trajectory/trajectory.egg-info/top_level.txt
reading manifest file '../../build/trajectory/trajectory.egg-info/SOURCES.txt'
writing manifest file '../../build/trajectory/trajectory.egg-info/SOURCES.txt'
running build
running build_py
copying trajectory/my_node.py -> /home/alberto/ros2_ws/build/trajectory/build/lib/trajectory
running install
running install_lib
copying /home/alberto/ros2_ws/build/trajectory/build/lib/trajectory/my_node.py -> /home/alberto/ros2_ws/install/trajectory/lib/python3.8/site-packages/trajectory
byte-compiling /home/alberto/ros2_ws/install/trajectory/lib/python3.8/site-packages/trajectory/my_node.py to my_node.cpython-38.pyc
running install_data
running install_egg_info
removing '/home/alberto/ros2_ws/install/trajectory/lib/python3.8/site-packages/trajectory-0.0.0-py3.8.egg-info' (and everything under it)
Copying ../../build/trajectory/trajectory.egg-info to /home/alberto/ros2_ws/install/trajectory/lib/python3.8/site-packages/trajectory-0.0.0-py3.8.egg-info
running install_scripts
Installing my_node script to /home/alberto/ros2_ws/install/trajectory/lib/trajectory
writing list of installed files to '/home/alberto/ros2_ws/build/trajectory/install.log'
